<?xml version="1.0" encoding="UTF-8" standalone="no"?>
<svg width="7px" height="4px" viewBox="0 0 7 4" version="1.1" xmlns="http://www.w3.org/2000/svg" xmlns:xlink="http://www.w3.org/1999/xlink">
    <!-- Generator: Sketch 41.2 (35397) - http://www.bohemiancoding.com/sketch -->
    <title>Dropdown</title>
    <desc>Created with Sketch.</desc>
    <defs></defs>
    <g id="Symbols" stroke="none" stroke-width="1" fill="none" fill-rule="evenodd">
        <g id="Dropdown" fill="#9B9B9B">
            <polygon transform="translate(3.500000, 1.750000) scale(1, -1) translate(-3.500000, -1.750000) " points="3.5 0 7 3.5 0 3.5"></polygon>
        </g>
    </g>
</svg>