<?xml version="1.0" encoding="UTF-8"?>
<svg width="12px" height="12px" viewBox="0 0 12 12" version="1.1" xmlns="http://www.w3.org/2000/svg" xmlns:xlink="http://www.w3.org/1999/xlink">
    <!-- Generator: Sketch 42 (36781) - http://www.bohemiancoding.com/sketch -->
    <title>linkedin [#161] - available</title>
    <desc>Created with Sketch.</desc>
    <defs></defs>
    <g id="Symbols" stroke="none" stroke-width="1" fill="none" fill-rule="evenodd">
        <g id="linkedin-[#161]---available" fill="#4990E2">
            <path d="M12,12 L9.6,12 L9.6,7.8006 C9.6,6.6486 9.0918,6.006 8.1804,6.006 C7.1886,6.006 6.6,6.6756 6.6,7.8006 L6.6,12 L4.2,12 L4.2,4.2 L6.6,4.2 L6.6,5.0772 C6.6,5.0772 7.353,3.756 9.0498,3.756 C10.7472,3.756 12,4.7916 12,6.9348 L12,12 L12,12 Z M1.4652,2.9526 C0.6558,2.9526 0,2.2914 0,1.476 C0,0.6612 0.6558,0 1.4652,0 C2.274,0 2.9298,0.6612 2.9298,1.476 C2.9304,2.2914 2.274,2.9526 1.4652,2.9526 L1.4652,2.9526 Z M0,12 L3,12 L3,4.2 L0,4.2 L0,12 Z"></path>
        </g>
    </g>
</svg>