<?xml version="1.0" encoding="UTF-8"?>
<svg width="33px" height="33px" viewBox="0 0 33 33" version="1.1" xmlns="http://www.w3.org/2000/svg" xmlns:xlink="http://www.w3.org/1999/xlink">
    <!-- Generator: Sketch 42 (36781) - http://www.bohemiancoding.com/sketch -->
    <title>Apply Marker</title>
    <desc>Created with Sketch.</desc>
    <defs></defs>
    <g id="Symbols" stroke="none" stroke-width="1" fill="none" fill-rule="evenodd">
        <g id="Apply-Marker">
            <g transform="translate(1.000000, 1.000000)">
                <circle id="Oval-2" stroke="#50E3C2" fill="#FFFFFF" cx="15.5" cy="15.5" r="15.5"></circle>
                <path d="M16,18 L13,18 L13,21 L17.5,21 L19,21 L19,9 L16,9 L16,18 Z" id="Check" fill="#4A4A4A" transform="translate(16.000000, 15.000000) rotate(-315.000000) translate(-16.000000, -15.000000) "></path>
            </g>
        </g>
    </g>
</svg>