<?xml version="1.0" encoding="UTF-8"?>
<svg width="15px" height="15px" viewBox="0 0 15 15" version="1.1" xmlns="http://www.w3.org/2000/svg" xmlns:xlink="http://www.w3.org/1999/xlink">
    <!-- Generator: Sketch 42 (36781) - http://www.bohemiancoding.com/sketch -->
    <title>Delete - Bulk Actions</title>
    <desc>Created with Sketch.</desc>
    <defs></defs>
    <g id="Symbols" stroke="none" stroke-width="1" fill="none" fill-rule="evenodd">
        <g id="Delete---Bulk-Actions" fill="#AAAAAA">
            <path d="M5.4,11.7 L6.8,11.7 L6.8,6.1 L5.4,6.1 L5.4,11.7 Z M8.2,11.7 L9.6,11.7 L9.6,6.1 L8.2,6.1 L8.2,11.7 Z M4,13.1 L11,13.1 L11,4.7 L4,4.7 L4,13.1 Z M5.4,3.3 L9.6,3.3 L9.6,1.9 L5.4,1.9 L5.4,3.3 Z M11,3.3 L11,0.5 L4,0.5 L4,3.3 L0.5,3.3 L0.5,4.7 L2.6,4.7 L2.6,14.5 L12.4,14.5 L12.4,4.7 L14.5,4.7 L14.5,3.3 L11,3.3 Z" id="delete-[#1487]-copy-37"></path>
        </g>
    </g>
</svg>