<?xml version="1.0" encoding="UTF-8"?>
<svg width="15px" height="15px" viewBox="0 0 15 15" version="1.1" xmlns="http://www.w3.org/2000/svg" xmlns:xlink="http://www.w3.org/1999/xlink">
    <!-- Generator: Sketch 42 (36781) - http://www.bohemiancoding.com/sketch -->
    <title>Lists - Actions - Delete</title>
    <desc>Created with Sketch.</desc>
    <defs></defs>
    <g id="Symbols" stroke="none" stroke-width="1" fill="none" fill-rule="evenodd">
        <g id="Lists---Actions---Delete" fill="#445870">
            <path d="M5.25,12 L6.75,12 L6.75,6 L5.25,6 L5.25,12 Z M8.25,12 L9.75,12 L9.75,6 L8.25,6 L8.25,12 Z M3.75,13.5 L11.25,13.5 L11.25,4.5 L3.75,4.5 L3.75,13.5 Z M5.25,3 L9.75,3 L9.75,1.5 L5.25,1.5 L5.25,3 Z M11.25,3 L11.25,0 L3.75,0 L3.75,3 L0,3 L0,4.5 L2.25,4.5 L2.25,15 L12.75,15 L12.75,4.5 L15,4.5 L15,3 L11.25,3 Z" id="delete-[#1487]"></path>
        </g>
    </g>
</svg>