<?xml version="1.0" encoding="UTF-8" standalone="no"?>
<svg width="10px" height="13px" viewBox="0 0 10 13" version="1.1" xmlns="http://www.w3.org/2000/svg" xmlns:xlink="http://www.w3.org/1999/xlink">
    <!-- Generator: Sketch 41.2 (35397) - http://www.bohemiancoding.com/sketch -->
    <title>pause [#1010]</title>
    <desc>Created with Sketch.</desc>
    <defs></defs>
    <g id="Symbols" stroke="none" stroke-width="1" fill="none" fill-rule="evenodd">
        <g id="outreach-actions-pause" fill="#445870">
            <path d="M0,13 L3.25,13 L3.25,0 L0,0 L0,13 Z M6.5,13 L9.75,13 L9.75,0 L6.5,0 L6.5,13 Z" id="pause-[#1010]"></path>
        </g>
    </g>
</svg>