<?xml version="1.0" encoding="UTF-8"?>
<svg width="15px" height="15px" viewBox="0 0 15 15" version="1.1" xmlns="http://www.w3.org/2000/svg" xmlns:xlink="http://www.w3.org/1999/xlink">
    <!-- Generator: Sketch 42 (36781) - http://www.bohemiancoding.com/sketch -->
    <title>View Reports - Sequences</title>
    <desc>Created with Sketch.</desc>
    <defs></defs>
    <g id="Symbols" stroke="none" stroke-width="1" fill="none" fill-rule="evenodd">
        <g id="View-Reports---Sequences" fill="#445870">
            <path d="M11.7,13.1 L13.1,13.1 L13.1,1.9 L11.7,1.9 L11.7,13.1 Z M10.3,14.5 L14.5,14.5 L14.5,0.5 L10.3,0.5 L10.3,14.5 Z M1.9,13.1 L3.3,13.1 L3.3,4.7 L1.9,4.7 L1.9,13.1 Z M0.5,14.5 L4.7,14.5 L4.7,3.3 L0.5,3.3 L0.5,14.5 Z M6.8,13.1 L8.2,13.1 L8.2,8.9 L6.8,8.9 L6.8,13.1 Z M5.4,14.5 L9.6,14.5 L9.6,7.5 L5.4,7.5 L5.4,14.5 Z" id="stats-[#1368]"></path>
        </g>
    </g>
</svg>