<?xml version="1.0" encoding="UTF-8" standalone="no"?>
<svg width="20px" height="16px" viewBox="0 0 20 16" version="1.1" xmlns="http://www.w3.org/2000/svg" xmlns:xlink="http://www.w3.org/1999/xlink">
    <!-- Generator: Sketch 46.2 (44496) - http://www.bohemiancoding.com/sketch -->
    <title>Response Type icon</title>
    <desc>Created with Sketch.</desc>
    <defs></defs>
    <g id="Symbols" stroke="none" stroke-width="1" fill="none" fill-rule="evenodd">
        <g id="Response-Type---Grey" fill-rule="nonzero" fill="#9B9B9B">
            <g id="Response-Type-icon">
                <g id="if_32_1923954-copy">
                    <path d="M9.94886926,4.78907402 C9.77357046,4.55202223 9.50265412,4.49159726 9.24767404,4.45906074 C8.78153858,4.3939877 8.31141906,4.36145118 7.8452836,4.34285888 C7.61022384,4.33356273 7.37516408,4.33356273 7.14010432,4.33356273 C7.01659834,4.33356273 6.89707643,4.33821081 6.77357046,4.33821081 C6.6261601,4.33821081 6.62217603,4.35215503 6.63412823,4.18017628 C6.69388918,3.44578053 6.70185731,2.7067367 6.63811229,1.97234095 C6.5823354,1.31696247 6.5823354,0.0526862398 5.8014589,0.00155742177 C5.5385107,-0.0170348757 5.19986528,0.131703504 5.05643898,0.401291818 C4.93293301,0.63834361 4.95683739,0.93582037 4.97277364,1.20076061 C4.98472583,1.42851625 4.95285333,1.67486419 4.91699675,1.89797176 C4.80942703,2.53940603 4.59428759,3.1436557 4.37516408,3.74325729 C4.27556249,4.01749368 4.16799277,4.29173006 4.0763593,4.5752626 C4.00464615,4.80301825 3.94090113,5.07725463 3.76161827,5.22134494 C3.7138095,5.26317761 3.65404854,5.28641798 3.59827165,5.3003622 C3.49867006,5.32825065 3.01659834,5.3561391 2.74169795,5.32360257 L2.73771388,5.26317761 C2.72576169,5.05866234 2.5823354,4.90062781 2.40703659,4.90062781 L0.582335397,4.90062781 C0.407036592,4.90062781 0.263610297,5.05866234 0.251658106,5.26317761 L0.000662089973,10.287746 C-0.0112901013,10.5108536 0.140104321,10.6967765 0.331339381,10.6967765 L2.65404854,10.6967765 C2.81739516,10.6967765 2.94886926,10.5619824 2.98074177,10.3853556 C3.21181747,10.473669 3.55444695,10.6317035 3.83731548,10.7664977 C4.15604058,10.9198841 4.49867006,10.9989014 4.8452836,10.9989014 C5.27556249,10.9989014 5.70584137,10.9989014 6.14010432,10.9989014 C6.88114018,10.9989014 7.65006448,11.0732706 8.37914815,10.8966437 C8.73372982,10.8083303 8.95285333,10.5805747 8.96082145,10.1483038 C8.96878958,9.82293856 8.84129954,9.41390802 8.51460631,9.40925995 C8.68592105,9.40925995 8.95683739,9.39066765 9.09627962,9.26516964 C9.4827338,8.93515636 9.45882942,8.27977787 9.07237524,7.95906074 C9.04847085,7.93582037 8.88910831,7.80102621 8.86918799,7.80567429 C8.91301269,7.79637814 9.3950844,7.81032236 9.55046289,7.67552821 C9.83731548,7.42918026 9.87715611,6.97831705 9.69388918,6.63900762 C9.59428759,6.45308465 9.4389091,6.30899434 9.26759436,6.225329 C9.5823354,6.23462515 9.89707643,6.09053485 10.0484709,5.74657734 C10.1759609,5.43980443 10.1401043,5.04936619 9.94886926,4.78907402 Z M2.10026368,10.227321 C1.87715611,10.227321 1.69787325,10.0181577 1.69787325,9.75786552 C1.69787325,9.49757336 1.87715611,9.28841001 2.10026368,9.28841001 C2.32337125,9.28841001 2.50265412,9.49757336 2.50265412,9.75786552 C2.50265412,10.0181577 2.32337125,10.227321 2.10026368,10.227321 Z" id="XMLID_806_"></path>
                </g>
                <g id="if_32_1923954-copy-2" transform="translate(14.800000, 9.600000) scale(-1, -1) translate(-14.800000, -9.600000) translate(9.600000, 4.000000)">
                    <path d="M9.94886926,4.78907402 C9.77357046,4.55202223 9.50265412,4.49159726 9.24767404,4.45906074 C8.78153858,4.3939877 8.31141906,4.36145118 7.8452836,4.34285888 C7.61022384,4.33356273 7.37516408,4.33356273 7.14010432,4.33356273 C7.01659834,4.33356273 6.89707643,4.33821081 6.77357046,4.33821081 C6.6261601,4.33821081 6.62217603,4.35215503 6.63412823,4.18017628 C6.69388918,3.44578053 6.70185731,2.7067367 6.63811229,1.97234095 C6.5823354,1.31696247 6.5823354,0.0526862398 5.8014589,0.00155742177 C5.5385107,-0.0170348757 5.19986528,0.131703504 5.05643898,0.401291818 C4.93293301,0.63834361 4.95683739,0.93582037 4.97277364,1.20076061 C4.98472583,1.42851625 4.95285333,1.67486419 4.91699675,1.89797176 C4.80942703,2.53940603 4.59428759,3.1436557 4.37516408,3.74325729 C4.27556249,4.01749368 4.16799277,4.29173006 4.0763593,4.5752626 C4.00464615,4.80301825 3.94090113,5.07725463 3.76161827,5.22134494 C3.7138095,5.26317761 3.65404854,5.28641798 3.59827165,5.3003622 C3.49867006,5.32825065 3.01659834,5.3561391 2.74169795,5.32360257 L2.73771388,5.26317761 C2.72576169,5.05866234 2.5823354,4.90062781 2.40703659,4.90062781 L0.582335397,4.90062781 C0.407036592,4.90062781 0.263610297,5.05866234 0.251658106,5.26317761 L0.000662089973,10.287746 C-0.0112901013,10.5108536 0.140104321,10.6967765 0.331339381,10.6967765 L2.65404854,10.6967765 C2.81739516,10.6967765 2.94886926,10.5619824 2.98074177,10.3853556 C3.21181747,10.473669 3.55444695,10.6317035 3.83731548,10.7664977 C4.15604058,10.9198841 4.49867006,10.9989014 4.8452836,10.9989014 C5.27556249,10.9989014 5.70584137,10.9989014 6.14010432,10.9989014 C6.88114018,10.9989014 7.65006448,11.0732706 8.37914815,10.8966437 C8.73372982,10.8083303 8.95285333,10.5805747 8.96082145,10.1483038 C8.96878958,9.82293856 8.84129954,9.41390802 8.51460631,9.40925995 C8.68592105,9.40925995 8.95683739,9.39066765 9.09627962,9.26516964 C9.4827338,8.93515636 9.45882942,8.27977787 9.07237524,7.95906074 C9.04847085,7.93582037 8.88910831,7.80102621 8.86918799,7.80567429 C8.91301269,7.79637814 9.3950844,7.81032236 9.55046289,7.67552821 C9.83731548,7.42918026 9.87715611,6.97831705 9.69388918,6.63900762 C9.59428759,6.45308465 9.4389091,6.30899434 9.26759436,6.225329 C9.5823354,6.23462515 9.89707643,6.09053485 10.0484709,5.74657734 C10.1759609,5.43980443 10.1401043,5.04936619 9.94886926,4.78907402 Z M2.10026368,10.227321 C1.87715611,10.227321 1.69787325,10.0181577 1.69787325,9.75786552 C1.69787325,9.49757336 1.87715611,9.28841001 2.10026368,9.28841001 C2.32337125,9.28841001 2.50265412,9.49757336 2.50265412,9.75786552 C2.50265412,10.0181577 2.32337125,10.227321 2.10026368,10.227321 Z" id="XMLID_806_"></path>
                </g>
            </g>
        </g>
    </g>
</svg>