<?xml version="1.0" encoding="UTF-8" standalone="no"?>
<svg width="16px" height="12px" viewBox="0 0 16 12" version="1.1" xmlns="http://www.w3.org/2000/svg" xmlns:xlink="http://www.w3.org/1999/xlink">
    <!-- Generator: Sketch 41.2 (35397) - http://www.bohemiancoding.com/sketch -->
    <title>140</title>
    <desc>Created with Sketch.</desc>
    <defs></defs>
    <g id="Symbols" stroke="none" stroke-width="1" fill="none" fill-rule="evenodd">
        <g id="Settings---Form---Mobile-Phone" fill="#9B9B9B">
            <path d="M15.3837501,1.98500001 L10.6023813,1.98500001 C10.4386188,1.26047501 9.87289382,0 7.94000006,0 C6.00710629,0 5.44386254,1.26047501 5.28010004,1.98500001 L0.496250004,1.98500001 C0.223312502,1.98500001 0,2.20831252 0,2.48125002 L0,11.4137501 C0,11.6891688 0.223312502,11.9100001 0.496250004,11.9100001 L15.3837501,11.9100001 C15.6591689,11.9100001 15.8800001,11.6891688 15.8800001,11.4137501 L15.8800001,2.48125002 C15.8800001,2.20831252 15.6591689,1.98500001 15.3837501,1.98500001 L15.3837501,1.98500001 Z M7.94000006,0.992500007 C9.01686256,0.992500007 9.42378757,1.54830001 9.58010632,1.98500001 L6.2998938,1.98500001 C6.45621255,1.55078126 6.8656188,0.992500007 7.94000006,0.992500007 L7.94000006,0.992500007 Z M14.8875001,2.97750002 L14.8875001,4.96250004 L0.992500007,4.96250004 L0.992500007,2.97750002 L14.8875001,2.97750002 L14.8875001,2.97750002 Z M7.19562505,5.95500004 L8.68437506,5.95500004 L8.68437506,6.45125005 L7.19562505,6.45125005 L7.19562505,5.95500004 L7.19562505,5.95500004 Z M0.992500007,10.9175001 L0.992500007,5.95500004 L6.20312504,5.95500004 L6.20312504,6.94750005 C6.20312504,7.2229188 6.42643755,7.44375005 6.69937505,7.44375005 L9.18062507,7.44375005 C9.45604382,7.44375005 9.67687507,7.2229188 9.67687507,6.94750005 L9.67687507,5.95500004 L14.8875001,5.95500004 L14.8875001,10.9175001 L0.992500007,10.9175001 L0.992500007,10.9175001 Z" id="140"></path>
        </g>
    </g>
</svg>