<?xml version="1.0" encoding="UTF-8"?>
<svg width="20px" height="20px" viewBox="0 0 20 20" version="1.1" xmlns="http://www.w3.org/2000/svg" xmlns:xlink="http://www.w3.org/1999/xlink">
    <!-- Generator: Sketch 43.2 (39069) - http://www.bohemiancoding.com/sketch -->
    <title>Email - Social Icon - Find Candidates</title>
    <desc>Created with Sketch.</desc>
    <defs></defs>
    <g id="Symbols" stroke="none" stroke-width="1" fill="none" fill-rule="evenodd">
        <g id="Email---Social-Icon---Find-Candidates" fill="#9012FE">
            <path d="M10,20 C4.4771525,20 0,15.5228475 0,10 C0,4.4771525 4.4771525,0 10,0 C15.5228475,0 20,4.4771525 20,10 C20,15.5228475 15.5228475,20 10,20 Z M16.3917065,6 L4.20623779,6 C3.98076904,6 3.79998779,6.18416667 3.79998779,6.40925926 L3.79998779,13.7759259 C3.79998779,14.0030648 3.98076904,14.1851852 4.20623779,14.1851852 L16.3917065,14.1851852 C16.6171753,14.1851852 16.7999878,14.0030648 16.7999878,13.7759259 L16.7999878,6.40925926 C16.7999878,6.18416667 16.6171753,6 16.3917065,6 Z M15.0917065,6.81851852 L10.2999878,9.81634259 L5.50623779,6.81851852 L15.0917065,6.81851852 Z M4.61248779,7.22368519 L10.2999878,10.7781019 L15.9874878,7.22368519 L15.9874878,13.3666667 L4.61248779,13.3666667 L4.61248779,7.22368519 Z" id="Email"></path>
        </g>
    </g>
</svg>