<?xml version="1.0" encoding="UTF-8"?>
<svg width="20px" height="20px" viewBox="0 0 20 20" version="1.1" xmlns="http://www.w3.org/2000/svg" xmlns:xlink="http://www.w3.org/1999/xlink">
    <!-- Generator: Sketch 43.2 (39069) - http://www.bohemiancoding.com/sketch -->
    <title>More Ellipse - Social Icon - Find Candidates</title>
    <desc>Created with Sketch.</desc>
    <defs></defs>
    <g id="Symbols" stroke="none" stroke-width="1" fill="none" fill-rule="evenodd">
        <g id="More-Ellipse---Social-Icon---Find-Candidates" fill="#DCE3EB">
            <path d="M10,20 C4.4771525,20 0,15.5228475 0,10 C0,4.4771525 4.4771525,0 10,0 C15.5228475,0 20,4.4771525 20,10 C20,15.5228475 15.5228475,20 10,20 Z M10,11.6794345 C10.7531156,11.6794345 11.3636364,11.0796227 11.3636364,10.3397172 C11.3636364,9.59981184 10.7531156,9 10,9 C9.24688443,9 8.63636364,9.59981184 8.63636364,10.3397172 C8.63636364,11.0796227 9.24688443,11.6794345 10,11.6794345 Z M6.36363636,11.6794345 C7.11675193,11.6794345 7.72727273,11.0796227 7.72727273,10.3397172 C7.72727273,9.59981184 7.11675193,9 6.36363636,9 C5.6105208,9 5,9.59981184 5,10.3397172 C5,11.0796227 5.6105208,11.6794345 6.36363636,11.6794345 Z M13.6363636,11.6794345 C14.3894792,11.6794345 15,11.0796227 15,10.3397172 C15,9.59981184 14.3894792,9 13.6363636,9 C12.8832481,9 12.2727273,9.59981184 12.2727273,10.3397172 C12.2727273,11.0796227 12.8832481,11.6794345 13.6363636,11.6794345 Z" id="Combined-Shape"></path>
        </g>
    </g>
</svg>