<?xml version="1.0" encoding="UTF-8"?>
<svg width="20px" height="20px" viewBox="0 0 20 20" version="1.1" xmlns="http://www.w3.org/2000/svg" xmlns:xlink="http://www.w3.org/1999/xlink">
    <!-- Generator: Sketch 43.2 (39069) - http://www.bohemiancoding.com/sketch -->
    <title>LinkedIn - Social Icon - Find Candidates</title>
    <desc>Created with Sketch.</desc>
    <defs></defs>
    <g id="Symbols" stroke="none" stroke-width="1" fill="none" fill-rule="evenodd">
        <g id="LinkedIn---Social-Icon---Find-Candidates" fill-rule="nonzero" fill="#0077B5">
            <path d="M0,10 C0,4.4771525 4.47593818,0 10,0 C15.5228475,0 20,4.47593818 20,10 C20,15.5228475 15.5240618,20 10,20 C4.4771525,20 0,15.5240618 0,10 Z M6.73109711,5.0625 C6.10625367,5.0625 5.6,5.56990539 5.6,6.19590084 C5.6,6.82189922 6.10625367,7.3293014 6.73109711,7.3293014 C7.35594055,7.3293014 7.86219421,6.82189922 7.86219421,6.19590084 C7.86219421,5.56990539 7.35594055,5.0625 6.73109711,5.0625 L6.73109711,5.0625 Z M12.6553425,8.01348845 L12.6553425,8.01425588 C12.5275842,8.01380068 12.403625,8.01891529 12.2414516,8.02731 C11.885783,8.04572151 11.0551278,8.43109451 10.7509838,9.04629581 C10.7509838,8.77920562 10.7540553,8.53390244 10.7540553,8.16783327 C10.389741,8.16783327 9.91297455,8.17013555 8.91727034,8.17013555 C8.91727034,9.28795473 8.90498423,13.2465515 8.90498423,14.4 L10.8331477,14.4 C10.8331477,13.7157426 10.8423621,11.9969691 10.8423621,10.9176339 C10.8423621,10.5552084 11.0614455,9.71819501 11.9604051,9.71819501 C12.7766728,9.71819501 13.0054988,10.4061754 13.0054988,10.9176339 C13.0054988,12.0417112 12.9970522,13.6306543 12.9970522,14.4 L14.9367337,14.4 C14.9367337,13.6479707 14.9436298,11.6052002 14.9206082,10.3163787 C14.8926558,8.75152109 13.9421147,8.0838439 13.0891984,8.031148 C12.9136811,8.02030804 12.7831008,8.01395241 12.6553425,8.0134867 L12.6553425,8.01348845 Z M5.76279196,8.19470981 L5.76279196,14.3969303 L7.69633071,14.3969303 L7.69633071,8.19470981 L5.76279196,8.19470981 Z" id="Combined-Shape"></path>
        </g>
    </g>
</svg>