<?xml version="1.0" encoding="UTF-8"?>
<svg width="20px" height="20px" viewBox="0 0 20 20" version="1.1" xmlns="http://www.w3.org/2000/svg" xmlns:xlink="http://www.w3.org/1999/xlink">
    <!-- Generator: Sketch 43.2 (39069) - http://www.bohemiancoding.com/sketch -->
    <title>Check - View Added - Find Candidates</title>
    <desc>Created with Sketch.</desc>
    <defs></defs>
    <g id="Symbols" stroke="none" stroke-width="1" fill="none" fill-rule="evenodd">
        <g id="Check---View-Added---Find-Candidates" fill="#FFFFFF">
            <path d="M9.99984375,20 C12.6711355,20 15.1821122,18.9596712 17.0708917,17.0708917 C18.9596712,15.1824247 20,12.6711355 20,9.99984375 C20,7.32886451 18.9596712,4.81788778 17.0708917,2.92910827 C15.1821122,1.04032876 12.6711355,7.10542736e-15 9.99984375,7.10542736e-15 C7.32886451,7.10542736e-15 4.81757527,1.04032876 2.92910827,2.92910827 C1.04032876,4.81788778 1.13686838e-13,7.32886451 1.13686838e-13,9.99984375 C1.13686838e-13,12.6711355 1.04032876,15.1824247 2.92910827,17.0708917 C4.81757527,18.9596712 7.32886451,20 9.99984375,20 L9.99984375,20 Z M3.81318458,3.81287208 C5.4653979,2.16003375 7.66261973,1.25001953 9.99984375,1.25001953 C12.3370678,1.25001953 14.5342896,2.16003375 16.1868154,3.81318458 C17.8396537,5.4653979 18.7499805,7.66261973 18.7499805,9.99984375 C18.7499805,12.3370678 17.8396537,14.5346021 16.1868154,16.1871279 C14.5342896,17.8399662 12.3370678,18.7499805 9.99984375,18.7499805 C7.66261973,18.7499805 5.4653979,17.8399662 3.81287208,16.1868154 C2.16003375,14.5346021 1.25001953,12.3370678 1.25001953,9.99984375 C1.25001953,7.66261973 2.16003375,5.4653979 3.81318458,3.81287208 L3.81318458,3.81287208 Z M7.48011688,14.9999219 L7.49980468,14.9999219 C7.66949484,14.9999219 7.83230988,14.9308583 7.95043673,14.8083564 L15.7630588,6.68322943 C16.002125,6.43416303 15.9946249,6.03853185 15.7455585,5.79946562 C15.4964921,5.56008688 15.1011735,5.5678995 14.8617947,5.81665339 L7.52949265,13.4423975 L4.53944593,9.90890483 C4.31631744,9.64515071 3.92224879,9.61233769 3.65849466,9.83546618 C3.39505305,10.0582822 3.36224004,10.4526633 3.58536852,10.7161049 L7.02260973,14.7789809 C7.13698652,14.913983 7.30323911,14.9999219 7.48011688,14.9999219 L7.48011688,14.9999219 Z" id="05"></path>
        </g>
    </g>
</svg>