<?xml version="1.0" encoding="UTF-8" standalone="no"?>
<svg width="60px" height="60px" viewBox="0 0 60 60" version="1.1" xmlns="http://www.w3.org/2000/svg" xmlns:xlink="http://www.w3.org/1999/xlink">
    <!-- Generator: sketchtool 40.1 (33804) - http://www.bohemiancoding.com/sketch -->
    <title>F8D04767-ACF8-4548-9573-5E8EB56E05A9</title>
    <desc>Created with sketchtool.</desc>
    <defs></defs>
    <g id="04---Team-Section---b---i---Click-on-Add-Team-Card" stroke="none" stroke-width="1" fill="none" fill-rule="evenodd">
        <g transform="translate(-615.000000, -526.000000)" id="Page-Builder-Body" fill="#50E3C2">
            <g transform="translate(-1.000000, 104.386667)">
                <g id="4th-section---team-" transform="translate(0.946667, 77.613333)">
                    <path d="M648.011016,362.32288 L642.084327,362.32288 L642.084327,371.234561 L633.194295,371.234561 L633.194295,377.175682 L642.084327,377.175682 L642.084327,386.087363 L648.011016,386.087363 L648.011016,377.175682 L656.901048,377.175682 L656.901048,371.234561 L648.011016,371.234561 L648.011016,362.32288 Z M668.754424,386.087363 L674.681113,386.087363 L674.681113,362.32288 L668.754424,362.32288 L668.754424,386.087363 Z M668.754424,397.969605 L662.827736,397.969605 L662.827736,403.910725 L674.681113,403.910725 L674.681113,392.028484 L668.754424,392.028484 L668.754424,397.969605 Z M662.827736,344.499518 L662.827736,350.440639 L668.754424,350.440639 L668.754424,356.38176 L674.681113,356.38176 L674.681113,344.499518 L662.827736,344.499518 Z M615.41423,386.087363 L621.340918,386.087363 L621.340918,362.32288 L615.41423,362.32288 L615.41423,386.087363 Z M621.340918,392.028484 L615.41423,392.028484 L615.41423,403.910725 L627.267607,403.910725 L627.267607,397.969605 L621.340918,397.969605 L621.340918,392.028484 Z M615.41423,344.499518 L615.41423,356.38176 L621.340918,356.38176 L621.340918,350.440639 L627.267607,350.440639 L627.267607,344.499518 L615.41423,344.499518 Z M633.194295,403.910725 L656.901048,403.910725 L656.901048,397.969605 L633.194295,397.969605 L633.194295,403.910725 Z M633.194295,350.440639 L656.901048,350.440639 L656.901048,344.499518 L633.194295,344.499518 L633.194295,350.440639 Z" id="plus-[#1455]"></path>
                </g>
            </g>
        </g>
    </g>
</svg>