<?xml version="1.0" encoding="UTF-8" standalone="no"?>
<svg width="14px" height="14px" viewBox="0 0 14 14" version="1.1" xmlns="http://www.w3.org/2000/svg" xmlns:xlink="http://www.w3.org/1999/xlink">
    <!-- Generator: Sketch 45.1 (43504) - http://www.bohemiancoding.com/sketch -->
    <title>View Reports - Sequences Copy</title>
    <desc>Created with Sketch.</desc>
    <defs></defs>
    <g id="Page-1" stroke="none" stroke-width="1" fill="none" fill-rule="evenodd">
        <g id="15---a---i---2---Report---Sequences--Report-page" transform="translate(-339.000000, -235.000000)" fill="#4A4A4A">
            <g id="Group-5" transform="translate(268.000000, 202.000000)">
                <g id="Main-Panel">
                    <g id="Message-box-nav" transform="translate(27.000000, 27.000000)">
                        <g id="Funnel" transform="translate(43.000000, 5.000000)">
                            <g id="View-Reports---Sequences" transform="translate(1.000000, 1.000000)">
                                <path d="M10.92,12.2266667 L12.2266667,12.2266667 L12.2266667,1.77333333 L10.92,1.77333333 L10.92,12.2266667 Z M9.61333333,13.5333333 L13.5333333,13.5333333 L13.5333333,0.466666667 L9.61333333,0.466666667 L9.61333333,13.5333333 Z M1.77333333,12.2266667 L3.08,12.2266667 L3.08,4.38666667 L1.77333333,4.38666667 L1.77333333,12.2266667 Z M0.466666667,13.5333333 L4.38666667,13.5333333 L4.38666667,3.08 L0.466666667,3.08 L0.466666667,13.5333333 Z M6.34666667,12.2266667 L7.65333333,12.2266667 L7.65333333,8.30666667 L6.34666667,8.30666667 L6.34666667,12.2266667 Z M5.04,13.5333333 L8.96,13.5333333 L8.96,7 L5.04,7 L5.04,13.5333333 Z" id="stats-[#1368]"></path>
                            </g>
                        </g>
                    </g>
                </g>
            </g>
        </g>
    </g>
</svg>