<svg xmlns="http://www.w3.org/2000/svg" width="36" height="30" viewBox="0 0 36 30">
    <g fill="none" fill-rule="evenodd">
        <path fill="#9B9B9B" fill-rule="nonzero" d="M23.909 7v16.808H27V7h-3.091zm-9.94 2.586v14.222h3.092V9.586H13.97zm4.97 2.586v11.636h3.091V12.172h-3.09zM9 14.757v9.05h3.091v-9.05H9z"/>
    </g>
</svg>
