<?xml version="1.0" encoding="UTF-8"?>
<svg width="15px" height="15px" viewBox="0 0 15 15" version="1.1" xmlns="http://www.w3.org/2000/svg" xmlns:xlink="http://www.w3.org/1999/xlink">
    <!-- Generator: Sketch 44.1 (41455) - http://www.bohemiancoding.com/sketch -->
    <title>Send to Account - Review Candidates - Drop-Down Option - Admin</title>
    <desc>Created with Sketch.</desc>
    <defs></defs>
    <g id="Symbols" stroke="none" stroke-width="1" fill="none" fill-rule="evenodd">
        <g id="Send-to-Account---Review-Candidates---Drop-Down-Option---Admin" fill="#AAAAAA">
            <path d="M0.468757324,11.2499341 L5.62485351,11.2499341 C5.88384194,11.2499341 6.09361084,11.0401652 6.09361084,10.7811768 C6.09361084,10.5224227 5.88384194,10.3124194 5.62485351,10.3124194 L0.937514649,10.3124194 L0.937514649,0.937507324 L4.96203066,0.937507324 L6.69971406,2.67519073 C6.78760606,2.76308272 6.9069048,2.81253662 7.03112549,2.81253662 L14.0624854,2.81253662 L14.0624854,10.3124194 L9.37491211,10.3124194 C9.11615806,10.3124194 8.90615478,10.5224227 8.90615478,10.7811768 C8.90615478,11.0401652 9.11615806,11.2499341 9.37491211,11.2499341 L14.5312427,11.2499341 C14.7899967,11.2499341 15,11.0401652 15,10.7811768 L15,2.3437793 C15,2.08479088 14.7899967,1.87502197 14.5312427,1.87502197 L7.2254254,1.87502197 L5.48750762,0.137104193 C5.39961562,0.0492121948 5.28055126,-7.32421904e-06 5.15609619,-7.32421904e-06 L0.468757324,-7.32421904e-06 C0.209768903,-7.32421904e-06 1.13686838e-13,0.209761578 1.13686838e-13,0.46875 L1.13686838e-13,10.7811768 C1.13686838e-13,11.0401652 0.209768903,11.2499341 0.468757324,11.2499341 L0.468757324,11.2499341 Z M7.49988281,14.9999927 C7.75887123,14.9999927 7.96864014,14.7902238 7.96864014,14.5312354 L7.96864014,8.16246396 L9.04396944,9.23779327 C9.13537712,9.32920094 9.25537899,9.37490478 9.37538087,9.37490478 C9.49538274,9.37490478 9.61538462,9.32920094 9.70679229,9.23779327 C9.88984203,9.05474353 9.88984203,8.75778577 9.70679229,8.57473603 L7.831763,6.69970673 C7.64894764,6.516657 7.3517555,6.516657 7.16894014,6.69970673 L5.29391084,8.57473603 C5.11086111,8.75778577 5.11086111,9.05474353 5.29391084,9.23779327 C5.47696058,9.420843 5.77391834,9.420843 5.9567337,9.23779327 L7.03112549,8.16340148 L7.03112549,14.5312354 C7.03112549,14.7902238 7.24112877,14.9999927 7.49988281,14.9999927 L7.49988281,14.9999927 Z" id="25"></path>
        </g>
    </g>
</svg>