<?xml version="1.0" encoding="UTF-8"?>
<svg width="12px" height="15px" viewBox="0 0 12 15" version="1.1" xmlns="http://www.w3.org/2000/svg" xmlns:xlink="http://www.w3.org/1999/xlink">
    <!-- Generator: sketchtool 42 (36781) - http://www.bohemiancoding.com/sketch -->
    <title>221A348B-AF10-45FD-9F7E-0A2A3D7866E1</title>
    <desc>Created with sketchtool.</desc>
    <defs></defs>
    <g id="Outreach" stroke="none" stroke-width="1" fill="none" fill-rule="evenodd">
        <g id="02---a---ii---A---2---Outreach---Candidates---First-Screen---Card-View---Add-to-List-Modal" transform="translate(-316.000000, -331.000000)" fill="#4A4A4A">
            <g id="Add-Team-Members-Modal" transform="translate(245.000000, 154.000000)">
                <g id="Modal-Body" transform="translate(31.000000, 23.000000)">
                    <g id="Add-Team-Members-Menu" transform="translate(10.000000, 154.000000)">
                        <g id="All">
                            <g id="Group-2" transform="translate(29.000000, 0.000000)">
                                <path d="M4.33070313,0.25921875 L3.75695312,1.40625 L1.46875,1.40625 C1.20976562,1.40625 1,1.61625 1,1.875 L1,14.53125 C1,14.7902344 1.20976562,15 1.46875,15 L11.7810156,15 C12.04,15 12.2497656,14.7902344 12.2497656,14.53125 L12.2497656,1.875 C12.2497656,1.61625 12.04,1.40625 11.7810156,1.40625 L9.4928125,1.40625 L8.91929687,0.25921875 C8.83984375,0.100546875 8.67742187,0 8.49976563,0 L4.75,0 C4.57234375,0 4.41015625,0.100546875 4.33070313,0.25921875 L4.33070313,0.25921875 Z M8.49976563,7.5 L7.09375,7.5 L7.09375,6.09375 C7.09375,5.835 6.88375,5.625 6.625,5.625 C6.36601563,5.625 6.15625,5.835 6.15625,6.09375 L6.15625,7.5 L4.75,7.5 C4.49101563,7.5 4.28125,7.71 4.28125,7.96875 C4.28125,8.22773438 4.49101563,8.4375 4.75,8.4375 L6.15625,8.4375 L6.15625,9.84375 C6.15625,10.1027344 6.36601563,10.3125 6.625,10.3125 C6.88375,10.3125 7.09375,10.1027344 7.09375,9.84375 L7.09375,8.4375 L8.49976563,8.4375 C8.75875,8.4375 8.96851563,8.22773438 8.96851563,7.96875 C8.96851563,7.71 8.75875,7.5 8.49976563,7.5 L8.49976563,7.5 Z M1.9375,14.0625 L11.3122656,14.0625 L11.3122656,2.34375 L9.9615625,2.34375 L10.298125,3.01734375 C10.3494531,3.09257812 10.3794531,3.18328125 10.3794531,3.28125 C10.3794531,3.54023437 10.1696875,3.75 9.91070313,3.75 L3.34375,3.75 C3.18109375,3.75 3.03039063,3.66585937 2.94507813,3.5278125 C2.85953125,3.38953125 2.85179688,3.21703125 2.92445313,3.07171875 L3.28820313,2.34375 L1.9375,2.34375 L1.9375,14.0625 L1.9375,14.0625 Z M8.21007812,0.9375 L9.14757812,2.8125 L4.1021875,2.8125 L5.0396875,0.9375 L8.21007812,0.9375 L8.21007812,0.9375 Z" id="47"></path>
                            </g>
                        </g>
                    </g>
                </g>
            </g>
        </g>
    </g>
</svg>