<?xml version="1.0" encoding="UTF-8"?>
<svg width="19px" height="29px" viewBox="0 0 19 29" version="1.1" xmlns="http://www.w3.org/2000/svg" xmlns:xlink="http://www.w3.org/1999/xlink">
    <!-- Generator: Sketch 45.2 (43514) - http://www.bohemiancoding.com/sketch -->
    <title>Chat bubble Curl - Candidate - Universal Inbox</title>
    <desc>Created with Sketch.</desc>
    <defs></defs>
    <g id="Symbols" stroke="none" stroke-width="1" fill="none" fill-rule="evenodd">
        <g id="Chat-bubble-Curl---Candidate---Universal-Inbox" fill="#4A90E2">
            <path d="M9.5,27 C15.0504395,28.8501464 19,28 19,28 C19,28 16.0000002,26.4999999 14,21 C12,15.5 12,0 12,0 L0,21 C0,21 4.55043947,25.3501465 9.5,27 Z" id="Line" transform="translate(9.500000, 14.097487) scale(-1, 1) translate(-9.500000, -14.097487) "></path>
        </g>
    </g>
</svg>