<?xml version="1.0" encoding="UTF-8" standalone="no"?>
<svg width="15px" height="15px" viewBox="0 0 15 15" version="1.1" xmlns="http://www.w3.org/2000/svg" xmlns:xlink="http://www.w3.org/1999/xlink">
    <!-- Generator: Sketch 41.2 (35397) - http://www.bohemiancoding.com/sketch -->
    <title>65</title>
    <desc>Created with Sketch.</desc>
    <defs></defs>
    <g id="Symbols" stroke="none" stroke-width="1" fill="none" fill-rule="evenodd">
        <g id="outreach-notification-selected" fill="#4A4A4A">
            <path d="M13.593624,7.4999795 C13.593624,4.13973594 10.8601009,1.40621285 7.49985738,1.40621285 C4.13984819,1.40621285 1.4063251,4.13973594 1.4063251,7.4999795 C1.4063251,9.79170451 2.6782817,11.7909287 4.5525837,12.8313222 L3.18406433,14.1998416 C3.00101696,14.3828889 3.00101696,14.6796085 3.18406433,14.8626559 C3.27570521,14.9542968 3.39570553,15 3.51547149,15 C3.63547181,15 3.75547214,14.9542968 3.84711302,14.8626559 L5.46617994,13.2435889 C6.10250981,13.4695271 6.78688668,13.5937462 7.49985738,13.5937462 C8.21282808,13.5937462 8.89720495,13.4695271 9.53376919,13.2435889 L11.1528361,14.8626559 C11.2442426,14.9542968 11.3642429,15 11.4842433,15 C11.6042436,15 11.7242439,14.9542968 11.8156504,14.8626559 C11.9986978,14.6796085 11.9986978,14.3828889 11.8156504,14.1998416 L10.4471311,12.8313222 C12.3216674,11.7909287 13.593624,9.79170451 13.593624,7.4999795 L13.593624,7.4999795 Z M9.63783197,12.1903048 C9.50845662,12.1825704 9.37650313,12.2259299 9.27783099,12.3248364 C9.27103409,12.3316333 9.26634658,12.3396021 9.26001844,12.3466334 C8.71064194,12.5470245 8.11790594,12.6562436 7.49985738,12.6562436 C6.88204319,12.6562436 6.28930719,12.5470245 5.73969632,12.3466334 C5.73336817,12.3396021 5.72868066,12.3316333 5.72188377,12.3248364 C5.62321162,12.2259299 5.49125814,12.1825704 5.36188278,12.1903048 C3.58320605,11.3760838 2.34382766,9.58076644 2.34382766,7.4999795 C2.34382766,4.6567686 4.65688086,2.34371541 7.49985738,2.34371541 C10.3430683,2.34371541 12.6561215,4.6567686 12.6561215,7.4999795 C12.6561215,9.58076644 11.4165087,11.3760838 9.63783197,12.1903048 L9.63783197,12.1903048 Z M9.5846287,8.01818404 L7.96860866,7.21029121 L7.96860866,4.68747181 C7.96860866,4.42872111 7.75884246,4.21872053 7.49985738,4.21872053 C7.24110667,4.21872053 7.0311061,4.42872111 7.0311061,4.68747181 L7.0311061,7.4999795 C7.0311061,7.67763624 7.13165325,7.83982418 7.29032555,7.91927752 L9.16533068,8.85678008 C9.23259649,8.89053018 9.30408106,8.90623334 9.37462813,8.90623334 C9.54642547,8.90623334 9.71212905,8.81154559 9.79416052,8.64724826 C9.90994209,8.41568513 9.81595746,8.13396561 9.5846287,8.01818404 L9.5846287,8.01818404 Z M14.0623753,4.21872053 C14.1078442,4.21872053 14.1535474,4.21215801 14.1980788,4.19856423 C14.363548,4.14864222 14.4880015,4.01129809 14.5219859,3.84207888 L14.9907372,1.49832247 C15.0214404,1.34457205 14.9733934,1.18566537 14.8625338,1.07480569 L13.9250312,0.137303127 C13.8141715,0.0264434494 13.6550305,-0.021603557 13.5017488,0.00909965197 L11.1579924,0.477850933 C10.9883044,0.511835401 10.8511947,0.636288866 10.8012727,0.801758068 C10.7511163,0.966992895 10.7963508,1.14675901 10.9184605,1.26886872 L13.7309682,4.08137641 C13.8200309,4.17067353 13.9397969,4.21872053 14.0623753,4.21872053 L14.0623753,4.21872053 Z M4.19867648,0.801758068 C4.14852009,0.636288866 4.01141034,0.511835401 3.84195675,0.477850933 L1.49820035,0.00909965197 C1.3446843,-0.021603557 1.18554324,0.0264434494 1.07468357,0.137303127 L0.137415379,1.07480569 C0.0263213254,1.18566537 -0.0217256809,1.34457205 0.00921190366,1.49832247 L0.477963185,3.84207888 C0.511713277,4.01129809 0.636166742,4.14864222 0.801635945,4.19856423 C0.846401692,4.21215801 0.892104942,4.21872053 0.937573816,4.21872053 C1.0599179,4.21872053 1.17968385,4.17067353 1.26898097,4.08137641 L4.08148866,1.26886872 C4.20359837,1.14675901 4.24859849,0.966992895 4.19867648,0.801758068 L4.19867648,0.801758068 Z M13.4396392,0.977539799 L14.0222971,1.56043202 L13.774562,2.79934165 L12.2007296,1.22550923 L13.4396392,0.977539799 L13.4396392,0.977539799 Z M1.2253871,2.79934165 L0.977417675,1.56043202 L1.56030989,0.977539799 L2.79921953,1.22550923 L1.2253871,2.79934165 L1.2253871,2.79934165 Z" id="65"></path>
        </g>
    </g>
</svg>