<?xml version="1.0" encoding="UTF-8"?>
<svg width="23px" height="23px" viewBox="0 0 23 23" version="1.1" xmlns="http://www.w3.org/2000/svg" xmlns:xlink="http://www.w3.org/1999/xlink">
    <!-- Generator: Sketch 42 (36781) - http://www.bohemiancoding.com/sketch -->
    <title>sequences - delete - active</title>
    <desc>Created with Sketch.</desc>
    <defs></defs>
    <g id="Symbols" stroke="none" stroke-width="1" fill="none" fill-rule="evenodd">
        <g id="sequences---delete---active" fill="#50E3C2">
            <path d="M8.05,18.4 L10.35,18.4 L10.35,9.2 L8.05,9.2 L8.05,18.4 Z M12.65,18.4 L14.95,18.4 L14.95,9.2 L12.65,9.2 L12.65,18.4 Z M5.75,20.7 L17.25,20.7 L17.25,6.9 L5.75,6.9 L5.75,20.7 Z M8.05,4.6 L14.95,4.6 L14.95,2.3 L8.05,2.3 L8.05,4.6 Z M17.25,4.6 L17.25,0 L5.75,0 L5.75,4.6 L0,4.6 L0,6.9 L3.45,6.9 L3.45,23 L19.55,23 L19.55,6.9 L23,6.9 L23,4.6 L17.25,4.6 Z" id="delete-[#1487]"></path>
        </g>
    </g>
</svg>