<?xml version="1.0" encoding="UTF-8"?>
<svg width="150px" height="150px" viewBox="0 0 150 150" version="1.1" xmlns="http://www.w3.org/2000/svg" xmlns:xlink="http://www.w3.org/1999/xlink">
    <!-- Generator: Sketch 46.2 (44496) - http://www.bohemiancoding.com/sketch -->
    <title>Group</title>
    <desc>Created with Sketch.</desc>
    <defs>
        <linearGradient x1="22.0692173%" y1="2.77453271%" x2="68.776285%" y2="81.2573014%" id="linearGradient-1">
            <stop stop-color="#50E3C2" offset="0%"></stop>
            <stop stop-color="#80C7C8" offset="100%"></stop>
        </linearGradient>
    </defs>
    <g id="Symbols" stroke="none" stroke-width="1" fill="none" fill-rule="evenodd">
        <g id="Desktop-Laptop-Icon">
            <g id="Group">
                <g id="Group-3" fill="url(#linearGradient-1)">
                    <circle id="Oval" cx="75" cy="75" r="75"></circle>
                </g>
                <g id="Group-2" transform="translate(27.202073, 47.409326)" fill-rule="nonzero" fill="#FFFFFF">
                    <path d="M51.1967625,49.2369379 C51.1967625,49.3495363 51.1033709,49.4386456 50.9901405,49.4386456 L8.27947599,49.4386456 C8.17036314,49.4386456 8.07285405,49.3493499 8.07285405,49.2369379 L8.07285405,22.8673023 C8.07285405,22.754704 8.17036314,22.6693231 8.27947599,22.6693231 L50.9903277,22.6693231 C51.1033709,22.6693231 51.1969496,22.7545176 51.1969496,22.8673023 L51.1969496,49.2369379 L51.1967625,49.2369379 Z M33.3393114,53.0839235 L25.9306795,53.0839235 C25.5213659,53.0839235 25.1925301,52.7550767 25.1925301,52.3477466 C25.1925301,52.2047617 25.2269671,52.0791138 25.2937823,51.9663291 L33.9760214,51.9663291 C34.0432109,52.0789274 34.0774608,52.2047617 34.0774608,52.3477466 C34.0772736,52.7550767 33.7482506,53.0839235 33.3393114,53.0839235 Z M58.9224393,51.9126398 L53.8590787,51.9126398 L53.8590787,21.9146906 C53.8590787,20.8429558 52.9884218,19.9794533 51.9146989,19.9794533 L7.35604061,19.9794533 C6.28138192,19.9794533 5.4052974,20.8429558 5.4052974,21.9146906 L5.4052974,51.9126398 L0.347364425,51.9126398 C0.153843512,51.9126398 0,52.0621495 0,52.2584509 L0,54.1189334 L0.00524041159,54.1189334 C0.118283576,54.7070919 2.26011465,55.1813472 4.86197901,55.1813472 L54.4078247,55.1813472 C57.0109991,55.1813472 59.151333,54.7070919 59.2643761,54.1189334 L59.2694294,54.1189334 L59.2694294,52.2584509 C59.2698037,52.0617767 59.115773,51.9126398 58.9224393,51.9126398 Z" id="Shape"></path>
                    <path d="M91.8435569,0 L26.6928731,0 C24.6248378,0 22.9430052,1.67450287 22.9430052,3.73412651 L22.9430052,18.7063711 L26.4736012,18.7063711 L26.4736012,3.73412651 C26.4736012,3.61090275 26.5708061,3.51690276 26.6928731,3.51690276 L91.8433699,3.51690276 C91.9654369,3.51690276 92.0626419,3.61090275 92.0626419,3.73412651 L92.0626419,40.6699817 C92.0626419,40.792647 91.9654369,40.892045 91.8433699,40.892045 L55.4002991,40.892045 L55.4002991,50.5906108 L59.1118459,50.5906108 C60.0446395,50.5906108 60.8041467,51.3467058 60.8041467,52.2757236 L60.8041467,55.1813472 C67.5668073,55.0698501 72.8235389,54.2024442 72.8235389,52.2115057 C72.8235389,50.6049435 69.3864092,49.1394742 64.4925138,48.5116287 L64.4925138,44.4057834 L91.8435569,44.4057834 C93.9115922,44.4057834 95.5958549,42.7314667 95.5958549,40.6694233 L95.5958549,3.73412651 C95.5958549,1.67450287 93.9114053,0 91.8435569,0 Z" id="Shape"></path>
                </g>
            </g>
        </g>
    </g>
</svg>