<?xml version="1.0" encoding="UTF-8" standalone="no"?>
<svg width="11px" height="7px" viewBox="0 0 11 7" version="1.1" xmlns="http://www.w3.org/2000/svg" xmlns:xlink="http://www.w3.org/1999/xlink">
    <!-- Generator: sketchtool 39.1 (31720) - http://www.bohemiancoding.com/sketch -->
    <title>8FBEE1A3-AB9A-4520-A5A1-D88AA84BAFF9</title>
    <desc>Created with sketchtool.</desc>
    <defs></defs>
    <g id="02---Edit-Background-Section---a---i---section-highlighted" stroke="none" stroke-width="1" fill="none" fill-rule="evenodd">
        <g transform="translate(-957.000000, -204.000000)" id="Right-Sidebar" fill="#6c6c77">
            <g transform="translate(774.000000, 106.000000)">
                <g id="Background" transform="translate(1.253333, 40.773333)">
                    <g id="Select-a-background-type" transform="translate(29.440000, 17.493333)">
                        <polygon id="arrow" points="153.173333 41.9514048 154.592431 40.5333333 157.903661 43.8421667 161.21489 40.5333333 162.633988 41.9514048 157.903661 46.6783096"></polygon>
                    </g>
                </g>
            </g>
        </g>
    </g>
</svg>
