<?xml version="1.0" encoding="UTF-8"?>
<svg width="15px" height="15px" viewBox="0 0 15 15" version="1.1" xmlns="http://www.w3.org/2000/svg" xmlns:xlink="http://www.w3.org/1999/xlink">
    <!-- Generator: Sketch 42 (36781) - http://www.bohemiancoding.com/sketch -->
    <title>Edit</title>
    <desc>Created with Sketch.</desc>
    <defs></defs>
    <g id="Symbols" stroke="none" stroke-width="1" fill="none" fill-rule="evenodd">
        <g id="Edit" fill="#4A4A4A">
            <path d="M13.1,13.1074501 L1.9,13.1074501 L1.9,1.96705128 L7.5,1.96705128 L7.5,0.574501417 L0.5,0.574501417 L0.5,14.5 L14.5,14.5 L14.5,7.53725071 L13.1,7.53725071 L13.1,13.1074501 Z M4.7,7.46483812 L11.5873,0.5 L14.5,3.38048938 L7.3894,10.3223504 L4.7,10.3223504 L4.7,7.46483812 Z" id="edit-[#1479]"></path>
        </g>
    </g>
</svg>