<?xml version="1.0" encoding="UTF-8"?>
<svg width="20px" height="20px" viewBox="0 0 20 20" version="1.1" xmlns="http://www.w3.org/2000/svg" xmlns:xlink="http://www.w3.org/1999/xlink">
    <!-- Generator: Sketch 45.2 (43514) - http://www.bohemiancoding.com/sketch -->
    <title>Forward - Button - Universal Inbox</title>
    <desc>Created with Sketch.</desc>
    <defs></defs>
    <g id="Symbols" stroke="none" stroke-width="1" fill="none" fill-rule="evenodd">
        <g id="Forward---Button---Universal-Inbox" fill="#50E3C2">
            <path d="M11.7,1.5 L11.7,3.2 L15.50375,3.2 L9.2061,9.29025 L10.4556,10.38845 L16.8,3.9871 L16.8,8.3 L18.5,8.3 L18.5,1.5 L11.7,1.5 Z M16.8,11.7 L18.5,11.7 L18.5,18.5 L1.5,18.5 L1.5,1.5 L8.3,1.5 L8.3,3.2 L3.2,3.2 L3.2,16.8 L16.8,16.8 L16.8,11.7 Z" id="send-[#1570]"></path>
        </g>
    </g>
</svg>