<?xml version="1.0" encoding="UTF-8"?>
<svg width="35px" height="35px" viewBox="0 0 35 35" version="1.1" xmlns="http://www.w3.org/2000/svg" xmlns:xlink="http://www.w3.org/1999/xlink">
    <!-- Generator: sketchtool 42 (36781) - http://www.bohemiancoding.com/sketch -->
    <title>F3938E18-84AD-416C-8994-76C366E9B01B</title>
    <desc>Created with sketchtool.</desc>
    <defs></defs>
    <g id="Symbols" stroke="none" stroke-width="1" fill="none" fill-rule="evenodd">
        <g id="Jobs-Modal---Send" fill="#FFFFFF">
            <path d="M20,5 L20,7.5 L25.59375,7.5 L16.3325,16.45625 L18.17,18.07125 L27.5,8.6575 L27.5,15 L30,15 L30,5 L20,5 Z M27.5,20 L30,20 L30,30 L5,30 L5,5 L15,5 L15,7.5 L7.5,7.5 L7.5,27.5 L27.5,27.5 L27.5,20 Z" id="send-[#1570]"></path>
        </g>
    </g>
</svg>