<?xml version="1.0" encoding="UTF-8"?>
<svg width="43px" height="43px" viewBox="0 0 43 43" version="1.1" xmlns="http://www.w3.org/2000/svg" xmlns:xlink="http://www.w3.org/1999/xlink">
    <!-- Generator: Sketch 43.2 (39069) - http://www.bohemiancoding.com/sketch -->
    <title>Targeted Job - Candidate Profile Modal</title>
    <desc>Created with Sketch.</desc>
    <defs></defs>
    <g id="Symbols" stroke="none" stroke-width="1" fill="none" fill-rule="evenodd">
        <g id="Targeted-Job---Candidate-Profile-Modal">
            <g id="Targeted-Jobs" transform="translate(1.500000, 1.500000)">
                <circle id="Oval-3" stroke="#80C7C8" stroke-width="2" cx="20" cy="20" r="20"></circle>
                <path d="M29.7142857,10.2857143 L29.7142857,11.7428571 L29.7142857,18.0571429 L27.7714286,18.0571429 L27.7714286,12.2285714 L21.9428571,12.2285714 L21.9428571,10.2857143 L28.2571429,10.2857143 L29.7142857,10.2857143 Z M27.7714286,21.9428571 L29.7142857,21.9428571 L29.7142857,27.2857143 L29.7142857,29.7142857 L28.2571429,29.7142857 L21.9428571,29.7142857 L21.9428571,27.7714286 L27.7714286,27.7714286 L27.7714286,21.9428571 Z M12.2285714,27.7714286 L18.0571429,27.7714286 L18.0571429,29.7142857 L12.7142857,29.7142857 L10.2857143,29.7142857 L10.2857143,27.2857143 L10.2857143,21.9428571 L12.2285714,21.9428571 L12.2285714,27.7714286 Z M12.2285714,18.0571429 L10.2857143,18.0571429 L10.2857143,11.7428571 L10.2857143,10.2857143 L12.7142857,10.2857143 L18.0571429,10.2857143 L18.0571429,12.2285714 L12.2285714,12.2285714 L12.2285714,18.0571429 Z M10.2954286,20 L10.2857143,20.0097143 L10.2857143,19.9902857 L10.2954286,20 Z M20,21.9428571 C18.9285143,21.9428571 18.0571429,21.0714857 18.0571429,20 C18.0571429,18.9285143 18.9285143,18.0571429 20,18.0571429 C21.0714857,18.0571429 21.9428571,18.9285143 21.9428571,20 C21.9428571,21.0714857 21.0714857,21.9428571 20,21.9428571 L20,21.9428571 Z M23.7487429,20.9714286 L25.8285714,20.9714286 L25.8285714,19.0285714 L23.7487429,19.0285714 C23.3961143,17.6676 22.3324,16.6038857 20.9714286,16.2512571 L20.9714286,14.1714286 L19.0285714,14.1714286 L19.0285714,16.2512571 C17.6676,16.6038857 16.6038857,17.6676 16.2512571,19.0285714 L14.1714286,19.0285714 L14.1714286,20.9714286 L16.2512571,20.9714286 C16.6038857,22.3324 17.6676,23.3961143 19.0285714,23.7487429 L19.0285714,25.8285714 L20.9714286,25.8285714 L20.9714286,23.7487429 C22.3324,23.3961143 23.3961143,22.3324 23.7487429,20.9714286 L23.7487429,20.9714286 Z" id="focus_point-[#845]" fill="#4A4A4A"></path>
            </g>
        </g>
    </g>
</svg>