<svg xmlns="http://www.w3.org/2000/svg" width="15" height="15" viewBox="0 0 15 15">
    <path fill="#FFF" fill-rule="evenodd" d="M3.375 4.22V7.5H1.97a.469.469 0 0 0-.469.47v6.563c0 .26.21.47.469.47H13.22c.26 0 .469-.21.469-.47V7.97a.469.469 0 0 0-.469-.469h-1.406V4.22A4.224 4.224 0 0 0 7.595 0a4.224 4.224 0 0 0-4.22 4.22zm9.377 9.845H2.438V8.44h10.314v5.626zM7.595 9.377c-.776 0-1.406.63-1.406 1.406 0 .612.392 1.131.937 1.325v.55a.469.469 0 0 0 .938 0v-.55c.545-.194.937-.713.937-1.325 0-.775-.63-1.406-1.406-1.406zm0 1.875a.47.47 0 1 1 .001-.939.47.47 0 0 1-.001.94zm0-10.314a3.286 3.286 0 0 1 3.282 3.282V7.5H4.313V4.22A3.286 3.286 0 0 1 7.595.938z"/>
</svg>
