<?xml version="1.0" encoding="UTF-8"?>
<svg width="110px" height="110px" viewBox="0 0 110 110" version="1.1" xmlns="http://www.w3.org/2000/svg" xmlns:xlink="http://www.w3.org/1999/xlink">
    <!-- Generator: Sketch 42 (36781) - http://www.bohemiancoding.com/sketch -->
    <title>Map Icon</title>
    <desc>Created with Sketch.</desc>
    <defs></defs>
    <g id="Symbols" stroke="none" stroke-width="1" fill="none" fill-rule="evenodd">
        <g id="Map-Icon" fill="#E9E8EB">
            <g id="Group">
                <g>
                    <path d="M2.07914667,37.5914667 L19.2823467,33.29024 C20.38656,36.0896 21.8965333,38.7498667 23.63904,41.3303467 L26.9141333,46.1794133 L18.5591467,67.2196267 L21.4293333,77.5492267 L34.9866667,71.6164267 L34.9866667,58.1333333 L38.4,63.1876267 L38.4,71.5229867 L70.8266667,78.47808 L70.8266667,42.3304533 L68.0008533,41.6576 L68.2218667,41.3303467 C69.16352,39.9355733 70.03776,38.5173333 70.816,37.0670933 L72.67584,37.5095467 L106.35648,33.2992 C107.759787,33.1281067 109.03552,34.1265067 109.206613,35.52896 C109.21984,35.6334933 109.225813,35.7367467 109.225813,35.8391467 L109.226667,35.8391467 L109.226667,102.399573 C109.226667,103.733333 108.20736,104.828587 106.905173,104.94848 L72.84352,109.206613 C72.5149867,109.24672 72.1928533,109.2224 71.8903467,109.143893 L36.70272,100.76544 L3.17994667,109.14688 C1.81077333,109.489067 0.4224,108.65664 0.0797866667,107.28704 C0.02816,107.07968 0.00384,106.871467 0.00298666667,106.667093 L0,106.667093 L0,40.10624 C0,38.85696 0.895146667,37.8167467 2.07914667,37.5914667 L2.07914667,37.5914667 L2.07914667,37.5914667 Z M74.24,42.47168 L74.24,78.13504 L89.17248,73.09568 C88.96256,72.1143467 88.7381333,71.1394133 88.4992,70.1717333 C86.0194133,60.1301333 81.96736,50.7959467 76.2257067,42.2237867 L74.24,42.47168 L74.24,42.47168 L74.24,42.47168 Z M74.24,87.1133867 L74.24,103.87456 L91.4048,101.72928 C91.68896,94.76096 91.4346667,88.0426667 90.61376,81.5876267 L74.24,87.1133867 L74.24,87.1133867 L74.24,87.1133867 Z M70.8266667,103.629653 L70.8266667,87.1901867 L56.3140267,84.0772267 L52.44672,99.2529067 L70.8266667,103.629653 L70.8266667,103.629653 L70.8266667,103.629653 Z M13.5556267,80.99456 L9.97973333,68.12032 C9.70453333,67.1249067 9.80736,66.1149867 10.2007467,65.2416 L20.9617067,38.1405867 L5.12,42.1013333 L5.12,84.6865067 L13.5556267,80.99456 L13.5556267,80.99456 L13.5556267,80.99456 Z M85.57824,41.0542933 C90.6875733,49.46816 94.3872,58.5096533 96.7658667,68.1386667 C96.9476267,68.8746667 97.1217067,69.6145067 97.28768,70.3569067 L104.106667,68.0554667 L104.106667,38.73792 L85.57824,41.0542933 L85.57824,41.0542933 L85.57824,41.0542933 Z M104.106667,77.0333867 L98.83008,78.8138667 C99.8293333,85.8274133 100.194987,93.1136 99.9598933,100.6592 L104.106667,100.1408 L104.106667,77.0333867 L104.106667,77.0333867 L104.106667,77.0333867 Z M44.1476267,97.27744 L47.96928,82.28736 L38.4,80.23552 L38.4,95.9086933 L44.1476267,97.27744 L44.1476267,97.27744 L44.1476267,97.27744 Z M34.9866667,80.9041067 L5.12,93.9741867 L5.12,103.391573 L34.9866667,95.9249067 L34.9866667,80.9041067 L34.9866667,80.9041067 L34.9866667,80.9041067 Z" id="Shape"></path>
                    <path d="M63.9790933,38.4648533 C66.9393067,34.0808533 69.39648,29.1703467 69.39648,23.46752 C69.39648,10.50752 58.8898133,0.000426666666 45.9298133,0.000426666666 C32.9698133,0.000426666666 22.4631467,10.5070933 22.4631467,23.46752 C22.4631467,29.1707733 24.9216,34.0821333 27.8813867,38.4648533 L44.72704,63.4082133 C44.9962667,63.8058667 45.4485333,63.97184 45.9293867,63.97184 C46.4110933,63.97184 46.86336,63.8062933 47.1325867,63.4082133 L63.9790933,38.4648533 L63.9790933,38.4648533 L63.9790933,38.4648533 Z M45.9298133,10.1060267 C38.8608,10.1060267 33.1298133,15.8370133 33.1298133,22.9060267 C33.1298133,29.97504 38.8608,35.7060267 45.9298133,35.7060267 C52.9988267,35.7060267 58.7298133,29.97504 58.7298133,22.9060267 C58.7298133,15.8370133 52.9992533,10.1060267 45.9298133,10.1060267 L45.9298133,10.1060267 L45.9298133,10.1060267 Z" id="Shape"></path>
                </g>
            </g>
        </g>
    </g>
</svg>