<?xml version="1.0" encoding="UTF-8"?>
<svg width="18px" height="18px" viewBox="0 0 18 18" version="1.1" xmlns="http://www.w3.org/2000/svg" xmlns:xlink="http://www.w3.org/1999/xlink">
    <!-- Generator: Sketch 43.2 (39069) - http://www.bohemiancoding.com/sketch -->
    <title>minus circle - toggle - find candidates</title>
    <desc>Created with Sketch.</desc>
    <defs></defs>
    <g id="Symbols" stroke="none" stroke-width="1" fill="none" fill-rule="evenodd">
        <g id="minus-circle---toggle---find-candidates" fill="#A8A8A8">
            <path d="M11.8979835,9.19834793 C11.8979835,9.66747194 11.5172481,10.0482103 11.0481276,10.0482103 L5.94899177,10.0482103 C5.47987128,10.0482103 5.0991358,9.66747194 5.0991358,9.19834793 C5.0991358,8.72922393 5.47987128,8.34848561 5.94899177,8.34848561 L11.0481276,8.34848561 C11.5172481,8.34848561 11.8979835,8.72922393 11.8979835,9.19834793 M8.49855967,15.9972466 C4.749845,15.9972466 1.69971193,12.9470907 1.69971193,9.19834793 C1.69971193,5.44960521 4.749845,2.39944931 8.49855967,2.39944931 C12.2472743,2.39944931 15.2974074,5.44960521 15.2974074,9.19834793 C15.2974074,12.9470907 12.2472743,15.9972466 8.49855967,15.9972466 M8.53333333,0.699724656 C3.82037333,0.699724656 0,4.5045583 0,9.19834793 C0,13.8921376 3.82037333,17.6969712 8.53333333,17.6969712 C13.2462933,17.6969712 17.0666667,13.8921376 17.0666667,9.19834793 C17.0666667,4.5045583 13.2462933,0.699724656 8.53333333,0.699724656" id="minus_circle-[#1426]"></path>
        </g>
    </g>
</svg>