<?xml version="1.0" encoding="UTF-8" standalone="no"?>
<svg width="27px" height="27px" viewBox="0 0 27 27" version="1.1" xmlns="http://www.w3.org/2000/svg" xmlns:xlink="http://www.w3.org/1999/xlink">
    <!-- Generator: Sketch 45.2 (43514) - http://www.bohemiancoding.com/sketch -->
    <title>organization icon</title>
    <desc>Created with Sketch.</desc>
    <defs></defs>
    <g id="Page-1" stroke="none" stroke-width="1" fill="none" fill-rule="evenodd">
        <g id="16---e---i---Impresonation" transform="translate(-342.000000, -9.000000)">
            <g id="Filter-by-Organization" transform="translate(343.000000, 10.000000)">
                <g id="organization-icon">
                    <g id="organization">
                        <g id="Organization---Candidates-Review---Field" transform="translate(6.000000, 6.000000)" fill="#FFFFFF">
                            <path d="M1.90806427,2.12212601e-14 C1.47157466,2.12212601e-14 1.12000004,0.346822042 1.12000004,0.777829629 L1.12000004,13.2221704 C1.12000004,13.6109919 1.5139376,14 1.90806427,14 L5.84800718,14 L5.84800718,11.6666978 C5.84800718,11.2356902 6.26463917,10.8890548 6.63607141,10.8890548 L7.42413564,10.8890548 C7.79537876,10.8890548 8.21201075,11.2356902 8.21201075,11.6666978 L8.21201075,14 L12.1521428,14 C12.5458912,14 12.9400179,13.6111785 12.9400179,13.2221704 L12.9400179,0.777829629 C12.9400179,0.347008707 12.5886324,0 12.1521428,0 L1.90806427,0 L1.90806427,2.12212601e-14 Z M3.48400361,2.33330222 L5.84800718,2.33330222 L5.84800718,3.88877482 L3.48400361,3.88877482 L3.48400361,2.33330222 L3.48400361,2.33330222 Z M8.21201075,2.33330222 L10.5760143,2.33330222 L10.5760143,3.88877482 L8.21201075,3.88877482 L8.21201075,2.33330222 L8.21201075,2.33330222 Z M3.48400361,6.99990667 L5.84800718,6.99990667 L5.84800718,8.55556593 L3.48400361,8.55556593 L3.48400361,6.99990667 L3.48400361,6.99990667 Z M10.5760143,6.99990667 C10.5760143,6.99990667 11.1670152,8.16665111 10.5760143,8.55556593 C9.98501342,8.94448074 8.21201075,8.55556593 8.21201075,8.55556593 L8.21201075,6.99990667 L10.5760143,6.99990667 Z" id="building"></path>
                        </g>
                        <circle id="Oval-5" stroke="#FFFFFF" cx="12.5" cy="12.5" r="12.5"></circle>
                    </g>
                </g>
            </g>
        </g>
    </g>
</svg>