<svg xmlns="http://www.w3.org/2000/svg" width="15" height="15" viewBox="0 0 15 15">
    <path fill="#9B9B9B" fill-rule="evenodd" d="M2.044 0A.837.837 0 0 0 1.2.833v13.334c0 .416.422.833.844.833h4.222v-2.5c0-.462.446-.833.844-.833h.844c.398 0 .845.371.845.833V15h4.221c.422 0 .844-.417.844-.833V.833A.837.837 0 0 0 13.02 0H2.044zm1.689 2.5h2.533v1.667H3.733V2.5zm5.066 0h2.532v1.667H8.8V2.5zm-5.066 5h2.533v1.667H3.733V7.5zm7.598 0s.634 1.25 0 1.667c-.633.416-2.532 0-2.532 0V7.5h2.532z"/>
</svg>
