<?xml version="1.0" encoding="UTF-8"?>
<svg width="10px" height="10px" viewBox="0 0 10 10" version="1.1" xmlns="http://www.w3.org/2000/svg" xmlns:xlink="http://www.w3.org/1999/xlink">
    <!-- Generator: Sketch 42 (36781) - http://www.bohemiancoding.com/sketch -->
    <title>pause [#1010]</title>
    <desc>Created with Sketch.</desc>
    <defs></defs>
    <g id="Symbols" stroke="none" stroke-width="1" fill="none" fill-rule="evenodd">
        <g id="pause-[#1010]" fill="#FFFFFF">
            <path d="M1.25,10 L3.75,10 L3.75,0 L1.25,0 L1.25,10 Z M6.25,10 L8.75,10 L8.75,0 L6.25,0 L6.25,10 Z"></path>
        </g>
    </g>
</svg>