<?xml version="1.0" encoding="UTF-8" standalone="no"?>
<svg width="17px" height="17px" viewBox="0 0 17 17" version="1.1" xmlns="http://www.w3.org/2000/svg" xmlns:xlink="http://www.w3.org/1999/xlink">
    <!-- Generator: Sketch 46.2 (44496) - http://www.bohemiancoding.com/sketch -->
    <title>Shape</title>
    <desc>Created with Sketch.</desc>
    <defs></defs>
    <g id="Page-1" stroke="none" stroke-width="1" fill="none" fill-rule="evenodd">
        <g id="Settings-Copy-2" transform="translate(-62.000000, -418.000000)" stroke="#9B9B9B" stroke-width="0.8" fill-rule="nonzero">
            <g id="Label-Copy-8" transform="translate(49.000000, 408.000000)">
                <path d="M28.7571606,11 L14.2428394,11 C14.1120797,11 14,11.1120797 14,11.2428394 L14,25.7571606 C14,25.8879203 14.1120797,26 14.2428394,26 L28.7571606,26 C28.8879203,26 29,25.8879203 29,25.7571606 L29,11.2241594 C29,11.0933998 28.8879203,11 28.7571606,11 Z M19.5105853,20.9564134 L17.5678705,24.2814446 L15.6251557,20.9564134 C15.4570361,20.6762142 15.5877958,20.4520548 15.9240349,20.4520548 L16.8206725,20.4520548 L16.8206725,12.6998755 L18.2963885,12.6998755 L18.2963885,20.4333748 L19.2117061,20.4333748 C19.5292653,20.4520548 19.6600249,20.6762142 19.5105853,20.9564134 Z M26.8704857,18.6774595 L25.4508095,18.6774595 L25.4508095,24.2814446 L23.1718555,24.2814446 L23.1718555,18.6774595 L21.7521793,18.6774595 C21.2478207,18.6774595 21.0423412,18.3225405 21.3038605,17.8929016 L24.3113325,12.6998755 L27.3374844,17.8929016 C27.5803238,18.3225405 27.3748443,18.6774595 26.8704857,18.6774595 Z" id="Shape"></path>
            </g>
        </g>
    </g>
</svg>