<?xml version="1.0" encoding="UTF-8"?>
<svg width="20px" height="20px" viewBox="0 0 20 20" version="1.1" xmlns="http://www.w3.org/2000/svg" xmlns:xlink="http://www.w3.org/1999/xlink">
    <!-- Generator: Sketch 44.1 (41455) - http://www.bohemiancoding.com/sketch -->
    <title>Related Fields - Candidate Profile Modal</title>
    <desc>Created with Sketch.</desc>
    <defs></defs>
    <g id="Symbols" stroke="none" stroke-width="1" fill="none" fill-rule="evenodd">
        <g id="Related-Fields---Candidate-Profile-Modal" fill="#666666">
            <path d="M6,17 C6,17.552 5.552,18 5,18 L3,18 C2.448,18 2,17.552 2,17 L2,15 C2,14.448 2.448,14 3,14 L5,14 C5.552,14 6,14.448 6,15 L6,17 Z M6,12 L2,12 C0.895,12 0,12.895 0,14 L0,18 C0,19.105 0.895,20 2,20 L6,20 C7.105,20 8,19.105 8,18 L8,14 C8,12.895 7.105,12 6,12 L6,12 Z M17,11 L17,15 C17,16.105 16.105,17 15,17 L11,17 C10.448,17 10,16.552 10,16 C10,15.448 10.448,15 11,15 L14,15 C14.552,15 15,14.552 15,14 L15,11 C15,10.448 15.448,10 16,10 C16.552,10 17,10.448 17,11 L17,11 Z M18,5 C18,5.552 17.552,6 17,6 L15,6 C14.448,6 14,5.552 14,5 L14,3 C14,2.448 14.448,2 15,2 L17,2 C17.552,2 18,2.448 18,3 L18,5 Z M18,0 L14,0 C12.895,0 12,0.895 12,2 L12,6 C12,7.105 12.895,8 14,8 L18,8 C19.105,8 20,7.105 20,6 L20,2 C20,0.895 19.105,0 18,0 L18,0 Z" id="object_connection_round-[#1094]" transform="translate(10.000000, 10.000000) scale(-1, 1) translate(-10.000000, -10.000000) "></path>
        </g>
    </g>
</svg>