<?xml version="1.0" encoding="UTF-8"?>
<svg width="15px" height="15px" viewBox="0 0 15 15" version="1.1" xmlns="http://www.w3.org/2000/svg" xmlns:xlink="http://www.w3.org/1999/xlink">
    <!-- Generator: Sketch 42 (36781) - http://www.bohemiancoding.com/sketch -->
    <title>Campaigns Icon</title>
    <desc>Created with Sketch.</desc>
    <defs></defs>
    <g id="Symbols" stroke="none" stroke-width="1" fill="none" fill-rule="evenodd">
        <g id="Campaigns-Icon" fill-rule="nonzero" fill="#9B9B9B">
            <path d="M2.17066443,7.41929562 C2.05416505,7.6778285 1.95362448,7.61878087 0.317845442,7.61878087 C0.18916766,7.6182406 0.0733993619,7.54048277 0.02422955,7.42156855 C-0.0249402618,7.30265432 0.0021063113,7.16584401 0.0928260815,7.07458511 L3.62291704,3.54289826 C3.77612172,3.38969359 3.91975109,3.44874123 5.33051077,3.44874123 C5.39534589,3.44836418 5.45396502,3.48725046 5.47882741,3.5471303 C5.5036898,3.60701014 5.4898532,3.67598039 5.4438184,3.72163705 L2.47707378,6.68678579 C2.15789738,7.00755807 2.24247912,7.25970742 2.17066443,7.41929562 Z M11.278363,9.5561816 C11.3240196,9.5101468 11.3929899,9.4963102 11.4528697,9.52117259 C11.5127495,9.54603498 11.5516358,9.60465411 11.5512588,9.66948923 L11.5512588,11.1520636 C11.5509024,11.2365778 11.5170411,11.3175007 11.4571017,11.377083 L7.92381901,14.9071739 C7.83256011,14.9978937 7.6957498,15.0249403 7.57683557,14.9757704 C7.45792134,14.9266006 7.38016351,14.8108323 7.37962325,14.6821546 C7.37962325,13.0639302 7.31578797,12.9490267 7.5791085,12.8293356 C8.47759006,12.4207898 7.0205498,13.810803 11.278363,9.5561816 Z M7.3397262,12.0010728 C7.37648576,12.0391321 7.39199116,12.0929367 7.38112278,12.1447214 C7.3702544,12.196506 7.33442551,12.2395368 7.28546621,12.2596057 L6.10132178,12.7974179 C5.98016585,12.8521965 5.8377425,12.826128 5.74384421,12.7319868 L2.26801323,9.25615579 C2.16976187,9.16123476 2.14281474,9.01430875 2.20098619,8.89069881 L2.7403943,7.70655438 C2.76212005,7.65883105 2.80590318,7.62482526 2.85751858,7.61558547 C2.90913399,7.60634567 2.96199503,7.62305096 2.99892719,7.6602738 L7.3397262,12.0010728 Z M14.6807834,4.0244975e-05 C14.8570596,4.0244975e-05 14.9999598,0.142940386 14.9999598,0.319216643 C15.0079247,3.27423381 13.8333166,6.10961374 11.737977,8.19329838 L8.53823358,11.3930418 C8.41849885,11.5129098 8.25602371,11.5802621 8.08659897,11.5802621 C7.91717424,11.5802621 7.75469909,11.5129098 7.63496437,11.3930418 L3.60695822,7.36503563 C3.48709022,7.24530091 3.41973787,7.08282576 3.41973787,6.91340103 C3.41973787,6.74397629 3.48709022,6.58150115 3.60695822,6.46176642 L6.80670162,3.26202303 C8.89038626,1.1666834 11.7257662,-0.00792474451 14.6807834,4.0244975e-05 Z M11.3038971,5.85692715 C11.6819255,5.32050988 11.6819255,4.60436071 11.3038971,4.06794344 C10.9141202,3.51570635 10.2116201,3.27944239 9.56734932,3.48390988 C8.92307855,3.68837737 8.4853808,4.28649759 8.4853808,4.96243529 C8.4853808,5.638373 8.92307855,6.23649322 9.56734932,6.44096071 C10.2116201,6.6454282 10.9141202,6.40916424 11.3038971,5.85692715 Z M2.70368902,11.8462723 L2.70368902,11.8462723 C2.83032553,11.7378235 3.01909727,11.745115 3.13699116,11.8630088 C3.25488504,11.9809027 3.26217647,12.1696745 3.15372774,12.296311 L1.41262049,14.0438018 C1.33108851,14.1253337 1.21225305,14.1571756 1.10087829,14.1273328 C0.989503535,14.0974901 0.902509946,14.0104965 0.872667169,13.8991217 C0.842824393,13.7877469 0.874666256,13.6689115 0.956198238,13.5873795 L2.70368902,11.8462723 Z M4.00912049,12.8612532 L4.00912049,12.8612532 C4.13383594,12.734775 4.33746863,12.733346 4.46394684,12.8580615 C4.59042505,12.9827769 4.59185406,13.1864096 4.46713862,13.3128878 L3.00371483,14.7635445 C2.87899938,14.88826 2.67679568,14.88826 2.55208023,14.7635445 C2.42736478,14.6388291 2.42736478,14.4366254 2.55208023,14.3119099 L4.00912049,12.8612532 Z M1.68711219,10.5328614 C1.81535317,10.4081459 2.02041486,10.4110039 2.14513031,10.5392449 C2.26984576,10.6674859 2.26698776,10.8725476 2.13874679,10.997263 L0.688090064,12.4479198 C0.559849086,12.5726352 0.35478739,12.5697772 0.230071941,12.4415362 C0.105356492,12.3132953 0.108214491,12.1082336 0.236455461,11.9835181 L1.68711219,10.5328614 Z" id="Campaigns"></path>
        </g>
    </g>
</svg>