<?xml version="1.0" encoding="UTF-8"?>
<svg width="14px" height="14px" viewBox="0 0 23 27" version="1.1" xmlns="http://www.w3.org/2000/svg" xmlns:xlink="http://www.w3.org/1999/xlink">
    <!-- Generator: Sketch 43.2 (39069) - http://www.bohemiancoding.com/sketch -->
    <title>Save - Button Icon</title>
    <desc>Created with Sketch.</desc>
    <defs></defs>
    <g id="Symbols" stroke="none" stroke-width="1" fill="none" fill-rule="evenodd">
        <g id="Save---Button-Icon" fill="#4990E2">
            <path d="M20.0782629,3.47640889 L21.80352,3.47640889 C22.3306971,3.47640889 22.7580343,3.90572444 22.7580343,4.43534222 L22.7580343,25.3814222 C22.7580343,25.91104 22.3306971,26.3403556 21.80352,26.3403556 L17.6190171,26.3403556 L17.6190171,19.3335289 L5.13846857,19.3335289 L5.13846857,26.3398044 L4.88173714,26.3398044 C4.61842286,26.3398044 4.25362286,26.1882489 4.06710857,26.0008711 L0.337371429,22.2538667 C0.150857143,22.06704 0,21.7005511 0,21.4354667 L0,4.43534222 C0,3.90572444 0.427337143,3.47640889 0.954514286,3.47640889 L2.67977143,3.47640889 L2.67977143,15.2768 L20.0782629,15.2768 L20.0782629,3.47640889 Z M8.9856,20.8083022 C9.09092571,20.8083022 9.17650286,20.8948267 9.17650286,21.0000889 L9.17650286,24.6726933 C9.17650286,24.7779556 9.09037714,24.86448 8.9856,24.86448 L7.53188571,24.86448 C7.42710857,24.86448 7.34098286,24.7779556 7.34098286,24.6726933 L7.34098286,21.0000889 C7.34098286,20.8948267 7.42710857,20.8083022 7.53188571,20.8083022 L8.9856,20.8083022 Z M11.5402971,11.5088533 L7.39254857,7.34135111 C6.97947429,6.93573333 7.07053714,6.64915556 7.64708571,6.65025778 L9.96370286,6.65025778 L9.9648,1.58499556 C9.9648,0.709831111 10.6702629,0 11.5413943,0 C12.4130743,0 13.1179886,0.709831111 13.1179886,1.58499556 L13.1179886,6.65025778 L15.43296,6.65025778 C16.0111543,6.65025778 16.1022171,6.93573333 15.6891429,7.3408 L11.5402971,11.5088533 Z" id="Save---Inactive"></path>
        </g>
    </g>
</svg>
