<?xml version="1.0" encoding="UTF-8"?>
<svg width="23px" height="27px" viewBox="0 0 23 27" version="1.1" xmlns="http://www.w3.org/2000/svg" xmlns:xlink="http://www.w3.org/1999/xlink">
    <!-- Generator: Sketch 42 (36781) - http://www.bohemiancoding.com/sketch -->
    <title>Save - Active</title>
    <desc>Created with Sketch.</desc>
    <defs></defs>
    <g id="Symbols" stroke="none" stroke-width="1" fill="none" fill-rule="evenodd">
        <g id="Save---Active" fill="#50E3C2">
            <path d="M20.2192457,3.53317333 L21.9445029,3.53317333 C22.47168,3.53317333 22.8990171,3.96248889 22.8990171,4.49210667 L22.8990171,25.4381867 C22.8990171,25.9678044 22.47168,26.39712 21.9445029,26.39712 L17.76,26.39712 L17.76,19.3902933 L5.27945143,19.3902933 L5.27945143,26.3965689 L5.02272,26.3965689 C4.75940571,26.3965689 4.39460571,26.2450133 4.20809143,26.0576356 L0.478354286,22.3106311 C0.29184,22.1238044 0.140982857,21.7573156 0.140982857,21.4922311 L0.140982857,4.49210667 C0.140982857,3.96248889 0.56832,3.53317333 1.09549714,3.53317333 L2.82075429,3.53317333 L2.82075429,15.3335644 L20.2192457,15.3335644 L20.2192457,3.53317333 Z M9.12658286,20.8650667 C9.23190857,20.8650667 9.31748571,20.9515911 9.31748571,21.0568533 L9.31748571,24.7294578 C9.31748571,24.83472 9.23136,24.9212444 9.12658286,24.9212444 L7.67286857,24.9212444 C7.56809143,24.9212444 7.48196571,24.83472 7.48196571,24.7294578 L7.48196571,21.0568533 C7.48196571,20.9515911 7.56809143,20.8650667 7.67286857,20.8650667 L9.12658286,20.8650667 Z M11.68128,11.5656178 L7.53353143,7.39811556 C7.12045714,6.99249778 7.21152,6.70592 7.78806857,6.70702222 L10.1046857,6.70702222 L10.1057829,1.64176 C10.1057829,0.766595556 10.8112457,0.0567644444 11.6823771,0.0567644444 C12.5540571,0.0567644444 13.2589714,0.766595556 13.2589714,1.64176 L13.2589714,6.70702222 L15.5739429,6.70702222 C16.1521371,6.70702222 16.2432,6.99249778 15.8301257,7.39756444 L11.68128,11.5656178 Z"></path>
        </g>
    </g>
</svg>