<?xml version="1.0" encoding="UTF-8" standalone="no"?>
<svg width="8px" height="15px" viewBox="0 0 8 15" version="1.1" xmlns="http://www.w3.org/2000/svg" xmlns:xlink="http://www.w3.org/1999/xlink">
    <!-- Generator: Sketch 41.2 (35397) - http://www.bohemiancoding.com/sketch -->
    <title>increase /decrease toggle</title>
    <desc>Created with Sketch.</desc>
    <defs></defs>
    <g id="Symbols" stroke="none" stroke-width="1" fill="none" fill-rule="evenodd">
        <g id="increase-/decrease-toggle" fill="#9B9B9B">
            <path d="M8,9 L0,9 L4,15 L8,9 Z M0,6 L8,6 L4,0 L0,6 Z"></path>
        </g>
    </g>
</svg>