<?xml version="1.0" encoding="UTF-8"?>
<svg width="20px" height="20px" viewBox="0 0 20 20" version="1.1" xmlns="http://www.w3.org/2000/svg" xmlns:xlink="http://www.w3.org/1999/xlink">
    <!-- Generator: Sketch 45.2 (43514) - http://www.bohemiancoding.com/sketch -->
    <title>Star - Button - Universal Inbox</title>
    <desc>Created with Sketch.</desc>
    <defs></defs>
    <g id="Symbols" stroke="none" stroke-width="1" fill="none" fill-rule="evenodd">
        <g id="Star---Button---Universal-Inbox" stroke="#FFFFFF" stroke-width="1.5" fill="#FFFFFF">
            <path d="M18.4801461,7.96182166 C18.4561871,7.88922644 18.3783876,7.72087333 18.1600647,7.72087333 L13.4479494,7.72002592 C12.720565,7.72002592 12.0779794,7.23417467 11.8467347,6.51189463 L10.3206274,1.74207821 C10.2506349,1.52372762 10.072423,1.5 10.0008152,1.5 C9.92759223,1.5 9.74938038,1.52372762 9.6793878,1.74207821 L8.15381895,6.51217711 C7.92257426,7.23473961 7.27918101,7.72030839 6.55206587,7.72030839 L1.83968139,7.7211558 C1.62135841,7.7211558 1.54275137,7.88950891 1.51986918,7.96210413 C1.49617939,8.03441687 1.4611831,8.21802345 1.63428011,8.35728198 L5.44833686,11.4220995 C6.00989264,11.8732067 6.24490616,12.652546 6.03277483,13.3609849 L4.63453861,18.0353259 C4.56912248,18.2525466 4.69699352,18.3819187 4.75621801,18.4262667 C4.81382728,18.4706148 4.96915694,18.5615706 5.1479072,18.4333285 L9.0416478,15.6218881 C9.32834814,15.4151188 9.66377408,15.3114517 9.99973842,15.3114517 C10.3357028,15.3114517 10.6716671,15.4148364 10.9583674,15.6218881 L14.8526464,18.4333285 C15.0322043,18.562983 15.1859188,18.4714622 15.2440664,18.4262667 C15.3027525,18.3819187 15.4308928,18.2525466 15.366015,18.0353259 L13.966702,13.3609849 C13.7556475,12.652546 13.989315,11.8729242 14.5516784,11.4220995 L18.3654659,8.35728198 C18.5388321,8.21802345 18.5038359,8.0341344 18.4801461,7.96182166 Z" id="Path"></path>
        </g>
    </g>
</svg>