<svg xmlns="http://www.w3.org/2000/svg" width="157" height="157" viewBox="0 0 157 157">
    <defs>
        <linearGradient id="a" x1="22.069%" x2="68.776%" y1="2.775%" y2="81.257%">
            <stop offset="0%" stop-color="#50E3C2"/>
            <stop offset="100%" stop-color="#80C7C8"/>
        </linearGradient>
    </defs>
    <g fill="none" fill-rule="evenodd">
        <circle cx="78.5" cy="78.5" r="78.5" fill="url(#a)"/>
        <path fill="#FFF" d="M56 61.5V79h-7.5a2.5 2.5 0 0 0-2.5 2.5v35a2.5 2.5 0 0 0 2.5 2.5h60a2.5 2.5 0 0 0 2.5-2.5v-35a2.5 2.5 0 0 0-2.5-2.5H101V61.5C101 49.093 90.906 39 78.5 39S56 49.093 56 61.5zm50 52.5H51V84h55v30zM78.5 89c-4.136 0-7.5 3.365-7.5 7.5 0 3.258 2.092 6.03 5 7.062v2.938a2.5 2.5 0 0 0 5 0v-2.938c2.908-1.032 5-3.804 5-7.062 0-4.135-3.364-7.5-7.5-7.5zm0 10a2.503 2.503 0 0 1-2.5-2.5c0-1.38 1.122-2.5 2.5-2.5s2.5 1.12 2.5 2.5c0 1.378-1.122 2.5-2.5 2.5zm0-55C88.15 44 96 51.85 96 61.5V79H61V61.5C61 51.85 68.85 44 78.5 44z"/>
    </g>
</svg>
