<?xml version="1.0" encoding="UTF-8"?>
<svg width="20px" height="20px" viewBox="0 0 20 20" version="1.1" xmlns="http://www.w3.org/2000/svg" xmlns:xlink="http://www.w3.org/1999/xlink">
    <!-- Generator: Sketch 42 (36781) - http://www.bohemiancoding.com/sketch -->
    <title>Campaigns - View Report</title>
    <desc>Created with Sketch.</desc>
    <defs></defs>
    <g id="Symbols" stroke="none" stroke-width="1" fill="none" fill-rule="evenodd">
        <g id="Campaigns---View-Report" fill="#FFFFFF">
            <path d="M16,18 L18,18 L18,2 L16,2 L16,18 Z M14,20 L20,20 L20,0 L14,0 L14,20 Z M2,18 L4,18 L4,6 L2,6 L2,18 Z M0,20 L6,20 L6,4 L0,4 L0,20 Z M9,18 L11,18 L11,12 L9,12 L9,18 Z M7,20 L13,20 L13,10 L7,10 L7,20 Z" id="stats-[#1368]"></path>
        </g>
    </g>
</svg>