<?xml version="1.0" encoding="UTF-8"?>
<svg width="15px" height="15px" viewBox="0 0 15 15" version="1.1" xmlns="http://www.w3.org/2000/svg" xmlns:xlink="http://www.w3.org/1999/xlink">
    <!-- Generator: Sketch 42 (36781) - http://www.bohemiancoding.com/sketch -->
    <title>View - active</title>
    <desc>Created with Sketch.</desc>
    <defs></defs>
    <g id="Symbols" stroke="none" stroke-width="1" fill="none" fill-rule="evenodd">
        <g id="View---active" fill="#4A4A4A">
            <path d="M8.9,7.18328871 C8.9,7.98303508 8.2735,8.63079345 7.5,8.63079345 C6.7265,8.63079345 6.1,7.98303508 6.1,7.18328871 C6.1,6.38354234 6.7265,5.73578396 7.5,5.73578396 C8.2735,5.73578396 8.9,6.38354234 8.9,7.18328871 M7.5,9.91834892 C5.4077,9.91834892 3.4365,8.88917304 2.1793,7.18328871 C3.4365,5.47740437 5.4077,4.44750474 7.5,4.44750474 C9.5923,4.44750474 11.5635,5.47740437 12.8207,7.18328871 C11.5635,8.88917304 9.5923,9.91834892 7.5,9.91834892 M7.5,3 C4.5068,3 1.8993,4.68489552 0.5,7.18328871 C1.8993,9.68168189 4.5068,11.3658537 7.5,11.3658537 C10.4932,11.3658537 13.1007,9.68168189 14.5,7.18328871 C13.1007,4.68489552 10.4932,3 7.5,3" id="view_simple-[#815]"></path>
        </g>
    </g>
</svg>