<?xml version="1.0" encoding="UTF-8"?>
<svg width="16px" height="17px" viewBox="0 0 16 17" version="1.1" xmlns="http://www.w3.org/2000/svg" xmlns:xlink="http://www.w3.org/1999/xlink">
    <!-- Generator: Sketch 46 (44423) - http://www.bohemiancoding.com/sketch -->
    <title>Wrong Number - Active - Universal Inbox</title>
    <desc>Created with Sketch.</desc>
    <defs></defs>
    <g id="Symbols" stroke="none" stroke-width="1" fill="none" fill-rule="evenodd">
        <g id="Wrong-Number---Active---Universal-Inbox" fill="#9b9b9b">
            <path d="M16,1.42841926 L14.5706611,0 L13.1413222,1.42841926 L11.7109725,0 L10.2816336,1.42841926 L11.7109725,2.85683852 L10.2816336,4.28525778 L11.7109725,5.71468724 L13.1413222,4.28525778 L14.5706611,5.71468724 L16,4.28525778 L14.5706611,2.85683852 L16,1.42841926 L16,1.42841926 Z M14.2694284,12.5335203 C13.5668892,12.1557065 12.8562631,11.7243522 12.1213767,11.4243235 C10.7021463,10.8454803 10.7981768,12.5567549 9.78328556,13.1113533 C9.12421275,13.473004 8.19524355,12.8194062 7.62007111,12.4567453 C6.61528832,11.8243617 5.72473134,10.9929692 4.98377985,10.0292408 C4.60572274,9.53727457 3.76772985,8.61193366 3.87083634,7.92196877 C4.03459369,6.82691469 5.33151152,6.77236402 4.96053035,5.43284214 C4.76240416,4.71661211 4.40759656,4.01048406 4.14174357,3.31849878 C3.78491427,2.39315787 3.63935217,1.79916174 2.60020056,1.84967162 C1.85116228,1.88704892 1.35281428,2.20728153 0.891867646,2.80733884 C-0.354507785,4.43072622 -0.16649008,6.6208344 0.671502809,8.40080239 C1.85722737,10.9222553 3.89105329,13.2972297 6.06437623,14.8327299 C7.54223582,15.8772741 9.48912883,16.8258495 11.2783296,16.9874811 C12.5883884,17.104664 14.4210556,16.3965156 14.890089,14.9751677 C14.8567311,15.0741671 14.8253948,15.1701358 14.8102321,15.2155947 C14.8223622,15.1802378 14.8456117,15.1085138 14.890089,14.9751677 C14.9082843,14.9185966 14.9214253,14.8802091 14.9335555,14.843842 C14.9204145,14.8832397 14.9062626,14.9266782 14.8910999,14.9721371 C15.3035258,13.7194922 15.3530574,13.1164043 14.2694284,12.5335203 L14.2694284,12.5335203 Z M14.9335555,14.843842 C14.9497291,14.7943423 14.9638809,14.7509039 14.9709569,14.7276693 C14.9648918,14.7468631 14.9517508,14.7882812 14.9335555,14.843842 L14.9335555,14.843842 Z" id="call-[#185]"></path>
        </g>
    </g>
</svg>
