<?xml version="1.0" encoding="UTF-8"?>
<svg width="50px" height="50px" viewBox="0 0 50 50" version="1.1" xmlns="http://www.w3.org/2000/svg" xmlns:xlink="http://www.w3.org/1999/xlink">
    <!-- Generator: Sketch 42 (36781) - http://www.bohemiancoding.com/sketch -->
    <title>Sequences Lightning Icon</title>
    <desc>Created with Sketch.</desc>
    <defs></defs>
    <g id="Symbols" stroke="none" stroke-width="1" fill="none" fill-rule="evenodd">
        <g id="Sequences-Lightning-Icon" fill="#666666">
            <path d="M30.9230872,0.746958064 C31.0979441,0.488701275 31.4473475,0.422337106 31.7034249,0.598682146 C31.8857313,0.724210597 31.9781261,0.945633186 31.9397404,1.16476016 L28.3173056,20.2267198 C28.2591579,20.533915 28.4590535,20.8304668 28.7636563,20.889005 C28.7979034,20.8955788 28.8326678,20.8989179 28.8676392,20.8990223 L36.8283874,20.8990223 C37.1384739,20.8994397 37.3895849,21.1533139 37.3891711,21.4660394 C37.3889641,21.5705943 37.3602007,21.6730622 37.3057778,21.7620695 L20.467576,49.2343311 C20.3029622,49.499266 19.9564559,49.5796126 19.6936532,49.4134935 C19.5001725,49.2914085 19.399397,49.0632034 19.4386104,48.8363548 L22.7220918,30.4455497 C22.7767217,30.1376241 22.5736187,29.8434723 22.2683951,29.7882731 C22.2659119,29.7878557 13.4712309,28.3375482 13.4712309,28.3375482 C13.1651796,28.2872534 12.9575241,27.9962319 13.0073945,27.6875759 C13.0206381,27.607438 13.0505396,27.5307436 13.0955472,27.4633359 L30.9230872,0.746958064 Z" id="Campaigns-Lightning-Icon"></path>
        </g>
    </g>
</svg>