<?xml version="1.0" encoding="UTF-8"?>
<svg width="30px" height="30px" viewBox="0 0 30 30" version="1.1" xmlns="http://www.w3.org/2000/svg" xmlns:xlink="http://www.w3.org/1999/xlink">
    <!-- Generator: Sketch 43.2 (39069) - http://www.bohemiancoding.com/sketch -->
    <title>twitter - social icon - candidate manager</title>
    <desc>Created with Sketch.</desc>
    <defs></defs>
    <g id="Symbols" stroke="none" stroke-width="1" fill="none" fill-rule="evenodd">
        <g id="twitter---social-icon---candidate-manager" fill-rule="nonzero" fill="#55ACEE">
            <path d="M15,30 C6.71572875,30 0,23.2842712 0,15 C0,6.71572875 6.71572875,0 15,0 C23.2842712,0 30,6.71572875 30,15 C30,23.2842712 23.2842712,30 15,30 Z M24.1880281,10.7800635 C23.5452244,11.0651004 22.8537559,11.257888 22.1285964,11.3439873 C22.8689971,10.9003886 23.4371992,10.1984919 23.7053906,9.36076152 C23.0125851,9.77173874 22.2449107,10.0698777 21.4285714,10.2305786 C20.7745374,9.53402973 19.842686,9.0987201 18.810831,9.0987201 C16.8310813,9.0987201 15.2254091,10.7043923 15.2254091,12.684142 C15.2254091,12.9651681 15.2572284,13.2387073 15.3187279,13.5012835 C12.3389426,13.3518129 9.69686976,11.9244893 7.92835752,9.75462583 C7.61979037,10.2840565 7.44277871,10.9003886 7.44277871,11.5573639 C7.44277871,12.8009911 8.07622375,13.8988912 9.03775536,14.5416949 C8.45030126,14.523245 7.89707298,14.3620093 7.41390067,14.0927484 C7.41363328,14.1079896 7.41363328,14.1232308 7.41363328,14.1382046 C7.41363328,15.8754323 8.650041,17.3244144 10.289939,17.6535705 C9.98939356,17.7359264 9.67200257,17.7795109 9.34552034,17.7795109 C9.11396128,17.7795109 8.88962173,17.7573176 8.67089736,17.7156048 C9.12706335,19.1397198 10.4509073,20.1763878 12.0202146,20.2055332 C10.7928981,21.1673322 9.24712111,21.7403472 7.5668473,21.7403472 C7.27806695,21.7403472 6.9919605,21.7235017 6.71200399,21.6900781 C8.29788941,22.7077614 10.1829834,23.3010981 12.2076545,23.3010981 C18.802542,23.3010981 22.4090877,17.8378017 22.4090877,13.0993975 C22.4090877,12.9440444 22.4056116,12.789226 22.3986595,12.6357446 C23.099754,12.130379 23.7075297,11.4990731 24.1880281,10.7800635 Z" id="Combined-Shape"></path>
        </g>
    </g>
</svg>